# Camera parameter file. 

# The format of each camera is as follows:
# Filename (of the undistorted image in visualize folder)
# Original filename
# Focal Length (of the undistorted image)
# 2-vec Principal Point (image center)
# 3-vec Translation T (as in P = K[R T])
# 3-vec Camera Position C (as in P = K[R -RC])
# 3-vec Axis Angle format of R
# 4-vec Quaternion format of R
# 3x3 Matrix format of R
# [Normalized radial distortion] = [radial distortion] * [focal length]^2
# 3-vec Lat/Lng/Alt from EXIF

# The nubmer of cameras in this reconstruction
3

00000000.jpg
E:\UntexturedDataset\floor\IMG_5626.JPG
2206.84106445
1296 864
-0.0767705508494 -0.173371688852 0.340768480416
0.0767705508494 0.173371688852 -0.340768480416
0 0 0
1 0 0 0
1 0 0
0 1 0
0 0 1
0.088298337592
0 0 0

00000001.jpg
E:\UntexturedDataset\floor\IMG_5627.JPG
2202.56152344
1296 864
0.0315384347107 -1.20630961817 0.10469894996
-0.137631812182 1.15002098798 -0.354469532349
0.209646972616 0.0196960905393 -0.0934890775957
0.993372334366 0.104591805486 0.00982627912439 -0.0466412240391
0.995456080917 0.0947196997524 0.00976572799925
-0.0906087066531 0.973770300891 -0.208713831314
-0.0292788873285 0.206880592569 0.977927996928
0.0684954431535
0 0 0

00000002.jpg
E:\UntexturedDataset\floor\IMG_5625.JPG
1704.76745605
1296 864
0.0338256440592 1.18817484616 -0.737164532643
-0.0148976239216 -1.13944766574 0.811019275517
0.0625750155856 -0.040808196587 0.0108868729498
0.999287651404 0.0312800782359 -0.0203992531198 0.00544214387205
0.999108507084 -0.0121527148041 -0.0404289821088
0.00960035386992 0.997983879551 -0.0627376231728
0.0411099048531 0.0622935604913 0.997210854355
0.0388309911198
0 0 0

