ply
format ascii 1.0
element vertex 3
property float x
property float y
property float z
property uchar diffuse_red
property uchar diffuse_green
property uchar diffuse_blue
end_header
0.0767706 0.173372 -0.340768 255 0 255
-0.137632 1.15002 -0.35447 255 0 255
-0.0148976 -1.13945 0.811019 255 0 255
