v -0.718977 0.902619 -0.0469661
v -0.716285 0.89434 -0.0322518
v -0.720278 0.899314 -0.0393192
v 1.02435 0.711833 0.0186644
v 1.01346 0.706471 0.0205271
v 0.677877 0.764075 -0.0626552
v 0.688678 0.740929 -0.0907371
v 0.672706 0.760721 -0.0573314
v 0.681806 0.730933 -0.0793098
v 0.683606 0.734212 -0.0854421
v -0.197175 0.85677 -0.0328171
v -0.203544 0.673884 -0.0980267
v -0.213128 0.75304 -0.0712039
v -0.204013 0.730352 -0.0960479
v -0.218714 0.829908 -0.0748276
v -0.19807 0.721987 -0.0801319
v -0.21752 0.760958 -0.0800276
v -0.211429 0.680813 -0.106572
v -0.209854 0.878933 -0.0580855
v -0.218962 0.813963 -0.0599104
v -0.32684 0.659011 -0.0501381
v -0.454357 0.633661 -0.0943861
v -0.341893 0.788089 -0.0999568
v -0.332713 0.856074 0.0107134
v -0.344299 0.827313 -0.0334662
v -0.332694 0.737264 -0.0304175
v -0.329725 0.826797 -0.0301427
v -0.348133 0.67584 -0.127293
v -0.439382 0.702154 -0.0874351
v -0.347753 0.913396 -0.0536491
v -0.681253 0.706335 -0.0505636
v -0.692788 0.653348 -0.0713322
v -0.714945 0.677816 -0.119707
v -0.765396 0.723224 -0.0741576
v -0.71275 0.73693 -0.106746
v -0.760038 0.779503 -0.0620101
v -0.713557 0.673436 -0.111503
v -0.705289 0.653553 -0.0792495
v -0.684817 0.709137 -0.0558271
v -0.717897 0.665549 -0.103371
v 0.821357 0.559608 -0.0510469
v 1.01547 0.575279 -0.00321716
v 1.00942 0.419678 0.0358927
v 1.01274 0.644052 -0.00113616
v 1.0066 0.676288 0.0318353
v 1.01268 0.436143 0.0273241
v 1.01416 0.568707 0.00419154
v 1.02325 0.66707 0.0037245
v 1.01322 0.670485 0.0238178
v 1.01425 0.456769 0.0168021
v 0.78073 0.689375 -0.0712284
v 0.766693 0.561577 -0.0657349
v 0.765278 0.560498 -0.0723396
v 0.287776 0.680018 -0.0818324
v 0.0508297 0.521447 0.0193123
v 0.304977 0.437963 -0.196645
v 0.282163 0.596469 -0.133004
v 0.275869 0.586506 -0.110382
v 0.288172 0.42145 -0.155584
v 0.290882 0.691928 -0.0984006
v 0.28768 0.682817 -0.08749
v 0.287057 0.688582 -0.092364
v 0.0329342 0.490904 0.00934446
v 0.101157 0.692316 -0.293308
v 0.061187 0.667459 -0.0964708
v 0.0605598 0.670607 -0.102929
v -0.326484 0.567594 -0.0966418
v -0.461774 0.592035 -0.15372
v -0.328747 0.395125 -0.151655
v -0.388902 0.399441 -0.176809
v -0.442737 0.475669 -0.149757
v -0.434234 0.512796 -0.128083
v -0.339351 0.591786 -0.146014
v -0.457665 0.536033 -0.182353
v -0.454936 0.481054 -0.166741
v -0.36453 0.531837 -0.155453
v -0.694187 0.499078 -0.0801787
v -0.71902 0.360434 -0.0935351
v -0.706504 0.50498 -0.103674
v -0.700991 0.498625 -0.0873827
v -0.705107 0.498589 -0.0951972
v -0.714752 0.358188 -0.085275
v -0.762067 0.470189 -0.0714456
v 0.895736 0.0763659 -0.046528
v 1.02411 0.316855 -0.00333288
v 1.03186 0.104487 0.0285768
v 0.89875 0.0867743 -0.041899
v 1.02484 0.225932 -0.00388806
v 1.01404 0.311205 0.0355428
v 0.904483 0.136575 -0.0431947
v 0.910374 0.145303 -0.0234378
v 1.03095 0.0188323 0.0292527
v 1.0316 0.057402 0.00698536
v 0.299333 0.328653 -0.200588
v 0.297415 0.326387 -0.190644
v 0.295262 0.238472 -0.235119
v 0.299401 0.247892 -0.200698
v 0.291179 0.237248 -0.228007
v 0.299866 0.245472 -0.208267
v 0.295396 0.240034 -0.221291
v 0.299601 0.242805 -0.214662
v -0.128965 0.252895 -0.241562
v 0.0776588 0.131769 -0.255741
v -0.128642 0.246087 -0.202275
v -0.214177 0.238825 -0.236687
v -0.209143 0.240761 -0.226304
v -0.00131096 0.120986 -0.274053
v -0.127953 0.251194 -0.23158
v -0.000395859 0.176975 -0.24398
v -0.129542 0.247784 -0.212215
v -0.126985 0.249494 -0.221615
v -0.339883 0.27357 -0.168639
v -0.442224 0.323728 -0.161311
v -0.429281 0.197196 -0.161417
v -0.451573 0.332031 -0.170145
v -0.447366 0.205026 -0.194803
v -0.353492 0.319792 -0.228385
v -0.45193 0.323091 -0.16042
v -0.458009 0.328813 -0.171496
v -0.436548 0.194602 -0.145287
v -0.458311 0.326449 -0.161996
v -0.648634 0.0446903 -0.12803
v -0.659615 0.0795823 -0.0979202
v -0.63936 0.0467001 -0.098266
v -0.644513 0.0474169 -0.117973
v -0.640445 0.0470636 -0.107982
v 1.03574 -0.0227771 -0.00247451
v 1.04392 -0.270582 0.00414086
v 0.89227 -0.233229 -0.0508009
v 0.894834 -0.194419 -0.0530119
v 0.872377 -0.12747 -0.0264951
v 0.848874 -0.303795 0.0243981
v 0.873232 -0.238094 0.000669983
v 0.901888 -0.278564 -0.0627738
v 1.04124 -0.271786 0.0155136
v 0.879211 -0.0576197 -0.0252508
v 0.500452 -0.0782756 -0.152362
v 0.629904 -0.149717 -0.116075
v 0.624155 -0.148956 -0.109633
v 0.445249 -0.3425 -0.171157
v -0.124455 -0.0998427 -0.258497
v -0.119067 -0.0939094 -0.278708
v -0.122678 -0.0966673 -0.265164
v -0.120847 -0.0971364 -0.272032
v -0.568256 -0.115154 -0.143476
v -0.311854 -0.213107 -0.201756
v -0.428619 -0.225351 -0.173637
v -0.436898 -0.23398 -0.206304
v -0.340416 -0.0361752 -0.221353
v -0.554753 -0.16243 -0.116338
v -0.411452 -0.307668 -0.185397
v -0.559068 -0.165992 -0.144661
v -0.557927 -0.11318 -0.119711
v -0.58941 -0.0423073 -0.138679
v -0.601788 -0.0319488 -0.103793
v -0.629707 -0.0260571 -0.117875
v -0.626959 -0.0261102 -0.120062
v -0.621336 -0.0262032 -0.123453
v 0.946434 -0.475359 -0.0975175
v 0.989943 -0.672562 -0.0364867
v 0.909787 -0.437088 -0.0160306
v 0.937781 -0.389655 -0.0825687
v 0.920295 -0.370267 -0.0387278
v 1.03147 -0.587022 0.0133718
v 0.977735 -0.645255 0.0127855
v 0.996295 -0.644495 0.0177133
v 0.933947 -0.384004 -0.0755768
v 0.914107 -0.439496 -0.0230642
v 0.728536 -0.524178 -0.0768192
v 0.71145 -0.532528 -0.0929511
v 0.720476 -0.530311 -0.085299
v 0.116129 -0.589833 -0.122186
v -0.0970021 -0.639844 -0.108286
v -0.0910052 -0.644213 -0.116305
v -0.414517 -0.451165 -0.1392
v -0.410149 -0.362905 -0.156156
v -0.310883 -0.474864 -0.160744
v -0.509386 -0.537695 -0.15552
v -0.278275 -0.508298 -0.442972
v -0.429042 -0.551089 -0.165886
v -0.518524 -0.379682 -0.133056
v -0.506101 -0.523828 -0.128944
v -0.412795 -0.532284 -0.117695
v -0.428495 -0.459738 -0.175977
v -0.619093 -0.373673 -0.0999474
v -0.615069 -0.380066 -0.120262
v -0.617106 -0.376869 -0.110107
v 0.146042 -0.806142 -0.0484472
v 0.266046 -0.762611 -0.0824764
v 0.259557 -0.749658 -0.0603998
v 0.146134 -0.814279 -0.061676
v 0.149551 -0.810521 -0.0549571
v 0.262231 -0.758812 -0.0763374
v 0.26093 -0.754252 -0.0683945
v -0.0714092 -0.793513 -0.0458414
v -0.0735493 -0.806965 -0.0677711
v -0.0720916 -0.79799 -0.0531343
v -0.0760323 -0.802266 -0.0606807
v -0.187193 -0.768688 -0.0718158
v -0.439962 -0.753278 -0.0756159
v -0.714245 -0.772051 -0.0823797
v -0.75657 -0.661684 -0.0714175
v -0.6273 -0.771737 -0.0665638
v -0.446006 -0.929032 -0.0105472
v -0.442514 -0.936812 -0.0234003
v -0.531232 -0.909309 -0.0298648
v -0.531052 -0.904069 -0.0230649
v -0.439949 -0.932087 -0.0169786
v -0.448582 -0.933761 -0.0169573
v 0.676383 0.751153 -0.0942078
v 0.662444 0.741211 -0.0757044
v 0.785019 0.785609 -0.0419028
v 0.669813 0.799734 -0.0676204
v 0.669379 0.746195 -0.0849733
v 0.649411 0.78336 -0.0397069
v 0.686221 0.872832 -0.0471051
v 0.681559 0.864083 -0.0346131
v 0.660462 0.796199 -0.0607227
v 0.682579 0.868939 -0.0412701
v 0.302711 0.894909 -0.0664621
v 0.364812 0.875268 -0.0374423
v 0.378705 0.81195 -0.0478074
v 0.304457 0.848961 -0.0950144
v 0.295412 0.88099 -0.0542518
v 0.300665 0.838815 -0.0790532
v 0.290913 0.874649 -0.0445296
v 0.294901 0.837327 -0.0757905
v 0.31074 0.815585 -0.0550124
v 0.285084 0.709723 -0.0961563
v 0.202217 0.902311 -0.0252713
v 0.17013 0.668111 -0.099632
v 0.192796 0.900724 -0.0255691
v 0.288438 0.848651 -0.00748922
v 0.0745125 0.696641 -0.0941117
v 0.0645228 0.778403 -0.0558381
v 0.283355 0.698385 -0.0697341
v 0.27942 0.821425 -0.0399787
v 0.285393 0.846291 -0.00777377
v 0.165531 0.808336 -0.0562401
v -1.08245 0.814936 -0.135992
v -1.01691 0.695634 0.0425524
v -1.0773 0.808441 -0.131804
v -0.912099 0.737823 -0.017941
v -0.914395 0.75166 -0.0373166
v -0.914817 0.741046 -0.0236508
v -0.911792 0.748433 -0.031608
v -0.99352 0.730215 -0.00914857
v -0.815659 0.734191 -0.0346816
v -1.00085 0.727084 -0.00175472
v 0.715772 0.339158 -0.0911528
v 0.75857 0.564268 -0.0679128
v 0.712896 0.337559 -0.0746079
v 0.714339 0.336904 -0.0829062
v 0.765406 0.563826 -0.0742212
v 0.300437 0.459854 -0.163406
v 0.300317 0.486726 -0.164231
v 0.320256 0.548872 -0.14137
v 0.301187 0.477983 -0.15849
v 0.321499 0.545078 -0.132443
v 0.531155 0.515639 -0.144336
v 0.207419 0.42018 -0.169208
v 0.201602 0.591145 -0.12028
v 0.20604 0.518867 -0.14482
v 0.16541 0.429651 -0.17055
v -0.456304 0.556118 -0.152908
v -0.447071 0.534401 -0.134917
v -0.456764 0.554316 -0.148061
v -0.449137 0.537151 -0.132325
v -0.455521 0.54795 -0.140947
v -0.450757 0.541641 -0.134509
v -0.452443 0.681081 -0.0898779
v -0.455089 0.672831 -0.108668
v -0.701907 0.719636 -0.0959082
v -0.693302 0.708238 -0.0743348
v -0.827652 0.731526 -0.0759728
v -0.795472 0.477832 -0.0539005
v -0.689178 0.684555 -0.0998831
v -0.71577 0.651293 -0.0931395
v -0.7168 0.648078 -0.0857617
v -0.792272 0.480513 -0.0625082
v -1.03691 0.636215 0.0279463
v -1.07737 0.772055 -0.12813
v -1.05191 0.436171 0.0231599
v -0.920328 0.407711 -0.0458593
v -1.07932 0.778707 -0.133442
v -0.905248 0.398464 -0.0157133
v -0.913926 0.676096 -0.0125766
v -1.03267 0.681713 -0.00336819
v -0.900569 0.686208 -0.0434466
v -0.916244 0.484654 -0.0424178
v 0.603026 0.133965 -0.119051
v 0.759058 0.0159011 -0.0701929
v 0.611864 0.219687 -0.117707
v 0.603504 0.224316 -0.12495
v 0.761102 0.0189409 -0.0798184
v 0.284837 0.317484 -0.176643
v 0.294358 0.332188 -0.226561
v 0.29924 0.329796 -0.217242
v 0.289787 0.323408 -0.188428
v 0.300626 0.32752 -0.207805
v 0.295168 0.325456 -0.198081
v 0.082218 0.137111 -0.261358
v -0.00265853 0.113607 -0.274273
v -0.0224771 0.145497 -0.254008
v -0.0159139 0.117009 -0.267793
v -0.135704 0.200744 -0.261975
v -0.131684 0.199475 -0.253046
v -0.240733 0.251296 -0.231563
v -0.346509 0.230279 -0.173675
v -0.43773 0.200154 -0.149454
v -0.443304 0.324687 -0.15719
v -0.451852 0.331395 -0.186125
v -0.236992 0.246323 -0.224586
v -0.450662 0.207638 -0.20192
v -0.347105 0.241192 -0.219472
v -0.142919 0.205622 -0.269091
v -0.443371 0.204985 -0.157272
v -0.639071 0.0375933 -0.103493
v -0.647105 0.00901058 -0.112332
v -0.639152 0.0378295 -0.112643
v -0.639108 0.0377109 -0.10805
v -0.985395 0.141499 -0.0431597
v -0.973605 0.218051 -0.0302696
v -1.00233 0.111409 0.022598
v -1.04992 0.220598 0.0122542
v -0.915393 0.129571 0.0325511
v -0.973439 0.217511 -0.0267325
v -0.922035 0.130179 0.0273073
v -0.98884 0.141491 -0.0424704
v -1.00223 0.291597 0.0132334
v -0.897343 0.140855 0.0177441
v 0.819559 -0.0264634 -0.339405
v 0.626808 -0.148801 -0.118528
v 0.623016 -0.147875 -0.110106
v 0.425906 -0.132298 -0.163739
v 0.434939 -0.136864 -0.178049
v 0.428753 -0.132989 -0.171171
v 0.573311 -0.243811 -0.124453
v 0.570836 -0.245837 -0.134499
v -0.0205858 -0.357624 -0.189299
v -0.321626 -0.267458 -0.224507
v -0.323896 -0.25953 -0.221503
v -0.310874 -0.215171 -0.226965
v -0.405215 -0.290917 -0.195624
v -0.426523 -0.215269 -0.156186
v -0.331387 -0.0383632 -0.187596
v -0.404071 -0.31143 -0.17006
v -0.309256 -0.211848 -0.203809
v -0.333789 -0.0354223 -0.217686
v -0.308707 -0.213623 -0.216425
v -0.551453 -0.105679 -0.119674
v -0.585958 -0.0453415 -0.13169
v -0.554854 -0.157396 -0.133648
v -0.582783 -0.0449136 -0.11834
v -0.552478 -0.156513 -0.125819
v -0.55653 -0.106912 -0.135687
v -0.553786 -0.106272 -0.127403
v -0.587601 -0.0452613 -0.12879
v -0.572418 -0.0485177 -0.12051
v -0.568249 -0.0486488 -0.125232
v -1.03891 -0.242643 0.0234226
v -0.873849 -0.305574 -0.0101838
v -1.01225 -0.29923 0.0276445
v -1.04153 -0.184449 0.0215067
v -1.00814 -0.305216 -0.000862397
v -0.884477 -0.314159 -0.0477098
v -1.01415 -0.250973 -0.00869399
v -1.03015 -0.187633 -0.00467765
v -1.00941 -0.354346 -0.00183386
v -0.875908 -0.310258 -0.0154073
v 0.727749 -0.532426 -0.0949214
v 0.7299 -0.524011 -0.0762613
v 0.723536 -0.529365 -0.0872535
v 0.162945 -0.488065 -0.15303
v 0.00836945 -0.360271 -0.190932
v -0.0398125 -0.636594 -0.112118
v -0.427336 -0.389534 -0.186185
v -0.0795832 -0.640541 -0.113517
v -0.413354 -0.389407 -0.160269
v -0.424819 -0.390628 -0.176717
v -0.415743 -0.391956 -0.169482
v -0.419651 -0.393629 -0.175113
v -0.625998 -0.376881 -0.116309
v -0.524281 -0.387262 -0.146339
v -0.626161 -0.374573 -0.107309
v -0.520045 -0.512402 -0.140974
v -0.522203 -0.511648 -0.148876
v -0.53765 -0.384255 -0.132511
v -0.539897 -0.390041 -0.140338
v -0.991897 -0.649445 0.0210475
v -1.03007 -0.429591 -0.00461754
v -1.01536 -0.500745 0.00965901
v -1.01406 -0.4991 0.00427096
v -1.02164 -0.54683 0.00810669
v -0.999545 -0.68343 0.00889328
v -0.885001 -0.368478 -0.0518142
v -1.02272 -0.670451 -0.0185323
v -1.01843 -0.551878 -0.00546931
v -0.881443 -0.370677 -0.0201012
v 0.278515 -0.779 -0.0791141
v 0.121884 -0.711244 -0.0934713
v 0.120954 -0.707053 -0.0855881
v 0.267153 -0.752957 -0.0396515
v 0.139428 -0.795668 -0.0463756
v 0.272014 -0.772885 -0.0629901
v 0.267311 -0.768359 -0.0548203
v 0.261381 -0.767994 -0.0531904
v 0.15044 -0.795313 -0.0526779
v 0.253156 -0.777959 -0.0628783
v 0.605077 -0.917495 -0.00991133
v 0.625214 -0.944137 -0.046604
v 0.611157 -0.922024 -0.0166178
v 0.629954 -0.937251 -0.0388731
v 0.619886 -0.925003 -0.0218626
v 0.626573 -0.933165 -0.0331943
v 0.623217 -0.929082 -0.0275241
v 0.425556 -0.930736 -0.0164041
v 0.419261 -0.934489 -0.023757
