OFF
1524 3040 0

-4.20814 -1.78284 2.37941
-3.46932 9.78226 3.0322
-3.86065 4.5026 2.38569
-4.1 11.7 9.2
-9.08354 3.8436 8.25559
-4.1 4.8 9.2
-4.1 -2.1 9.2
-3.46123 -2.22721 -3.17433
2.57287 4.02373 -3.18619
2.8 -2.1 9.2
2.8 4.8 9.2
7.98972 -1.17275 8.3769
7.97629 4.45513 2.83865
2.29637 4.9414 2.55782
7.7905 -7.73143 3.65243
2.96338 -2.37248 2.21817
7.99497 -1.81893 2.82933
2.8 -9 9.2
-1.03255 1.01118 -0.00223208
1.06813 1.09489 -0.105672
1.07817 -1.0902 0.00043095
-1.06905 -1.07259 -0.128079
-4.66278 0.8162 0.267215
-3.15282 -2.91405 -0.0521612
-2.66227 0.957738 0.0474137
-2.83006 2.97563 0.138193
0.99369 -4.35926 0.217265
1.03718 -2.79423 0.094929
0.949915 2.9163 -0.123756
1.20269 4.76307 0.14002
2.86945 -2.72634 0.1358
2.74285 -0.976674 0.0547073
2.74161 0.88308 -0.0228978
2.97219 3.11295 -0.0410211
2.78839 4.79795 0.227475
4.42159 -2.73169 0.221451
4.41792 -0.927119 0.21692
4.98664 1.0891 1.03241
4.59866 2.9915 0.251775
1.03796 0.753574 -0.00509076
0.161262 0.853372 -0.0429807
0.151593 0.85977 -0.0417512
0.322192 0.839216 -0.0472176
0.304537 0.833027 -0.0558036
0.183282 0.793969 -0.0631909
0.309374 0.834813 -0.0469639
0.0891421 0.83704 -0.0459222
0.113554 0.836351 -0.0496075
0.132367 0.772193 -0.0752278
0.126933 0.72022 -0.0903046
-0.0778604 0.700522 -0.0906754
-0.224261 0.824959 -0.0625401
-0.212098 0.655149 -0.106821
-0.214526 0.847797 -0.0378486
-0.106213 0.664876 -0.0989413
-0.216021 0.662269 -0.102542
-0.0803095 0.665574 -0.0988702
-0.258075 0.854149 -0.0420892
-0.223368 0.828244 -0.0585776
-0.220716 0.850902 -0.0419892
-0.327019 0.878308 -0.0260837
-0.309022 0.725397 -0.0746621
-0.325033 0.827438 -0.0562027
-0.315923 0.665088 -0.0986847
-0.314491 0.712436 -0.0820255
-0.313907 0.700238 -0.0868873
-0.311038 0.684518 -0.0907365
-0.312912 0.672689 -0.0959852
-0.329307 0.870996 -0.031814
-0.320144 0.831333 -0.0519786
-0.770297 0.760685 -0.0641329
-0.716413 0.723796 -0.0850088
-0.75856 0.714267 -0.0734823
-0.71798 0.723896 -0.0809116
-0.779964 0.713729 -0.067059
-0.723991 0.718753 -0.0746511
-0.720982 0.726789 -0.0766081
1.11491 0.596798 0.015239
1.05647 0.5563 0.0184569
1.10328 0.688026 0.0145317
1.0536 0.4696 0.0185469
1.12673 0.518707 0.0166414
1.23373 0.61353 0.0114971
0.0835816 0.676071 -0.102311
-0.187977 0.546311 -0.103998
-0.114595 0.400701 0.0451488
-0.162058 0.456449 0.0649971
-0.129139 0.468279 0.0503126
-0.256906 0.576687 -0.123956
-0.201268 0.570797 -0.116918
-0.0537542 0.6195 -0.107081
-0.0682575 0.595877 -0.110784
-0.469007 0.568802 -0.131907
-0.488826 0.570711 -0.125955
-0.29335 0.639075 -0.105595
-0.31483 0.56548 -0.120823
-0.323908 0.553763 -0.12541
-0.316703 0.55147 -0.127405
-0.316874 0.537743 -0.132375
-0.310502 0.52237 -0.135638
1.03032 0.145439 -0.00576662
1.03521 0.335916 -0.00115946
1.05269 0.27184 0.0155832
1.05283 0.353665 0.0138206
1.05668 0.303054 0.0139402
1.18694 -0.00632886 0.0141623
1.04133 0.224441 -0.00273361
1.04965 0.22626 0.0119881
1.03493 0.182524 -0.00290808
-0.199721 0.114501 -0.0544482
0.900072 -0.341278 -0.0403128
1.23512 -0.31461 0.00860991
0.897923 -0.323447 -0.0147219
0.867951 -0.0626354 -0.0361486
0.918805 -0.065982 -0.0116767
0.899024 -0.332462 -0.0310635
0.895382 -0.308287 -0.0296807
0.0607864 -0.00636073 -0.0684628
-0.562756 -0.060583 -0.132038
-0.539697 -0.0520933 -0.142688
0.0200711 -0.626648 -0.10994
-0.0293609 -0.641184 -0.106991
-0.0901192 -0.653669 -0.104191
-0.522555 -0.394527 -0.14627
-0.537815 -0.366974 -0.130122
-0.511924 -0.565552 -0.122284
-0.527259 -0.385698 -0.142238
-0.533757 -0.38171 -0.132894
-0.529944 -0.382846 -0.136396
-0.510063 -0.533858 -0.134809
-0.512442 -0.527637 -0.137264
0.15089 -0.801433 -0.0608705
0.653461 0.91834 -0.0236211
0.623296 0.996054 -0.021044
0.313194 0.842453 -0.0450719
0.328667 0.839403 -0.0508456
0.267903 0.877787 -0.0346573
0.105904 0.824016 -0.0501205
0.182335 0.899825 -0.0296408
0.183242 0.883907 -0.0330071
0.0737075 0.74944 -0.0713046
0.116098 0.768433 -0.0682027
0.165202 0.77399 -0.0730946
0.0733055 0.67677 -0.102141
-0.325761 0.70291 -0.0833532
-0.264401 0.831594 -0.0528945
-0.328965 0.830696 -0.0549713
-0.327242 0.695417 -0.0863538
-0.216951 0.836781 -0.0502401
-0.31008 0.844864 -0.0446344
-0.225136 0.846202 -0.0438756
-0.328567 0.839564 -0.0465823
-0.226447 0.840923 -0.0487479
-0.266625 0.841853 -0.0478146
-0.682539 0.721697 -0.0822982
-0.70974 0.726703 -0.0724182
-0.703851 0.724573 -0.0749531
-1.03359 0.736453 -0.0151424
-1.02588 0.751208 -0.000690927
-1.05939 0.743797 0.00861028
-1.02852 0.745862 0.00271332
0.221612 0.597757 -0.118942
-0.0318757 0.612753 -0.105952
-0.0655225 0.619052 -0.114306
-0.0547147 0.574675 -0.111294
-0.069934 0.632705 -0.109945
-0.0712644 0.5634 -0.119286
-0.288253 0.624919 -0.110725
-0.318595 0.668888 -0.0970768
-0.0661582 0.663116 -0.0999732
-0.120308 0.66157 -0.0992243
-0.322869 0.67747 -0.0919487
-0.179287 0.579963 -0.118029
-0.0858089 0.656748 -0.1019
-0.0784144 0.649589 -0.105219
-0.741702 0.725934 -0.0703042
-0.816128 0.726889 -0.0645644
-0.80522 0.729136 -0.0672925
-0.820908 0.725483 -0.0619844
-1.03285 0.600111 0.00204781
-1.03775 0.598294 0.00581375
-1.03092 0.415702 -0.00447392
-1.14964 0.698883 0.0118466
-1.04945 0.672018 0.00715003
-0.907513 0.0478376 -0.0176036
-0.903475 0.139976 -0.0123258
-0.91358 0.152043 -0.0475164
-1.01563 0.0671209 0.00216113
-0.985561 0.119256 -0.00477152
-0.915834 0.148292 -0.011311
-0.899009 0.0628017 -0.0401689
-1.00779 0.0479882 0.00308178
-0.8966 0.0597132 -0.0265584
-1.15124 -0.177247 0.00498421
-0.902455 -0.303945 -0.0164064
-0.881461 -0.339976 -0.0339264
-1.02521 -0.353829 0.00933291
-1.15527 -0.0217096 0.0033713
-0.849546 -0.283024 -0.0466176
-0.906427 -0.356127 -0.0174913
-1.01602 -0.665113 0.00983949
-1.05423 -0.475691 0.0105044
-1.02249 -0.639388 -0.00556118
-0.861524 -0.390195 -0.0427259
-0.888826 -0.380206 -0.0233894
-0.90444 -0.400907 -0.0177923
-0.885389 -0.381588 -0.0292776
0.25711 -0.772142 -0.0613077
0.256552 -0.773076 -0.0653415
0.151859 -0.805121 -0.0590681
-0.330967 0.912526 -0.0173298
0.757972 0.737045 -0.0681699
-0.204851 0.850522 -0.0260306
0.00827782 0.677937 -0.0938956
-0.206349 0.723038 -0.0762922
-0.222812 0.682474 -0.10309
-0.22877 0.799217 -0.0569518
-0.216154 0.8758 -0.0464465
-0.207372 0.857577 -0.0330979
-0.232166 0.723892 -0.0841782
-0.34608 0.746925 -0.0867395
-0.456058 0.644085 -0.103841
-0.330069 0.683651 -0.0695232
-0.37798 0.86049 -0.0549153
-0.328594 0.650585 -0.082442
-0.3702 0.78327 -0.0711877
-0.341687 0.878151 -0.0454944
-0.344224 0.82971 -0.0631652
-0.334367 0.874804 -0.0226792
-0.345425 0.707241 -0.0970853
-0.694951 0.671133 -0.0850846
-0.724666 0.772437 -0.0671406
-0.725121 0.662996 -0.0854673
-0.759593 0.715341 -0.0670871
-0.732502 0.649835 -0.0783403
-0.756509 0.778305 -0.0610376
-0.703939 0.720852 -0.0764714
-0.765714 0.64961 -0.0689981
1.04692 0.637328 0.0230247
1.02035 0.537498 0.00170959
1.0416 0.64539 0.0189205
1.02327 0.562152 0.000855421
1.03199 0.675122 -0.000512593
1.0405 0.656049 0.015456
1.02505 0.565221 0.00724284
1.03496 0.60144 0.00746619
1.03405 0.669798 0.00343764
0.0843564 0.668879 -0.107898
0.0673099 0.677171 -0.0989559
-0.223927 0.342698 -0.191572
-0.253642 0.60896 -0.115832
-0.210051 0.347374 -0.191945
-0.116708 0.445486 -0.133285
0.0199166 0.365457 -0.195917
-0.0426425 0.394356 -0.175015
-0.248745 0.601825 -0.123779
-0.178415 0.398756 0.0276276
0.00476223 0.366507 -0.18476
-0.456306 0.577718 -0.122897
-0.449687 0.539066 -0.127801
-0.464644 0.539473 -0.14751
-0.467975 0.579286 -0.128939
-0.464521 0.541532 -0.131399
-0.516978 0.580406 -0.128408
-0.307235 0.586305 -0.118433
-0.296534 0.589888 -0.125639
-0.467605 0.540294 -0.140488
-0.485543 0.534578 -0.132815
-0.765499 0.462226 -0.0719882
1.02508 0.0222656 -0.00643825
1.03856 0.0207232 0.00320911
1.03245 0.131944 0.0129973
1.02981 0.0637947 0.0363701
1.03813 0.0277323 0.0125851
1.0315 0.0504247 0.0318838
0.303477 0.166482 -0.188941
0.0951384 0.00309845 -0.0642639
0.26999 0.178555 -0.210321
0.270375 0.203116 -0.222515
0.286423 0.208038 -0.213009
-0.205036 0.200035 -0.221603
-0.143941 0.013186 -0.248246
-0.127166 0.0155704 -0.265646
-0.034858 0.204215 -0.233855
-0.0281425 0.317415 -0.203105
-0.104693 0.0298757 -0.279898
-0.113578 0.0202495 -0.273973
-0.01091 0.234905 -0.226962
-0.329297 0.246113 -0.183513
-0.329964 0.0857688 -0.19016
-0.322209 0.280951 -0.188622
-0.329802 0.195377 -0.197561
-0.328218 0.138742 -0.186916
-0.338319 0.249044 -0.185651
-0.441808 0.196456 -0.15991
-0.458999 0.200389 -0.171142
0.961565 -0.328203 -0.0058019
1.1126 -0.279982 0.01261
0.889412 -0.264096 -0.0662302
1.03599 -0.184251 0.00921862
1.0241 -0.0731764 0.0246905
1.10499 -0.367802 0.00815048
0.167887 0.0212091 -0.223188
0.186336 0.0397901 -0.242172
-0.13664 -0.324943 -0.167931
-0.113372 -0.31165 -0.222524
-0.0587544 -0.074231 -0.255406
-0.12051 -0.133442 -0.264569
-0.143525 -0.306094 -0.202914
-0.114967 -0.176883 -0.244559
-0.118423 -0.316721 -0.213919
-0.126567 -0.305063 -0.211318
-0.114601 -0.13982 -0.260179
-0.370829 -0.322885 -0.187696
-0.411715 -0.26804 -0.189863
-0.381307 -0.325588 -0.183581
-0.299404 -0.216186 -0.222968
-0.305773 -0.176297 -0.216458
-0.418366 -0.162614 -0.171426
-0.412319 -0.29766 -0.165602
-0.548001 -0.191622 -0.132561
-0.312005 -0.327432 -0.183363
-0.412176 -0.275365 -0.180369
-0.61131 -0.0428914 -0.110278
-0.617225 -0.0411404 -0.11485
0.990125 -0.497992 -0.00129423
1.21329 -0.682197 0.00573955
0.919057 -0.416117 -0.0312071
1.01831 -0.467197 0.00387796
1.0188 -0.596606 0.0049344
0.990368 -0.648037 0.0125256
0.990443 -0.667525 -0.0102598
0.992242 -0.65066 -0.00787839
-0.140316 -0.367145 -0.194844
-0.152714 -0.359322 0.0169109
0.00563162 -0.643178 -0.107389
-0.149336 -0.332633 0.00165966
-0.523033 -0.382687 -0.133727
-0.495988 -0.528798 -0.136037
-0.417961 -0.542979 -0.133975
-0.413989 -0.397825 -0.156058
-0.405841 -0.540705 -0.148703
-0.400711 -0.39141 -0.190111
-0.411577 -0.54306 -0.139877
-0.511342 -0.369263 -0.154269
-0.614291 -0.385219 -0.118563
-0.614894 -0.378228 -0.112995
0.149396 -0.807683 -0.0604329
-0.516146 -0.904854 -0.0317264
-0.401287 -0.921098 -0.0266967
-0.436951 -0.934239 -0.0156888
-0.474445 -0.992217 -0.0174207
-0.530713 -0.904525 -0.0268445
0.684027 1.01891 -0.0156525
0.80042 0.736241 -0.0449674
0.672629 0.754292 -0.0795346
0.654312 0.751609 -0.0616603
0.667862 0.752672 -0.0731644
0.662458 0.750988 -0.0658161
0.669559 0.735408 -0.0826629
0.302309 0.824555 -0.0442265
0.314805 0.828792 -0.0592402
0.371327 0.825716 -0.05078
0.315897 0.827167 -0.0510358
0.270858 0.734524 -0.0768287
0.279888 0.871017 -0.0218742
0.229687 0.87373 -0.0319328
0.0822728 0.717963 -0.0848372
0.182162 0.86707 -0.0329093
0.282529 0.737822 -0.0797581
0.0922864 0.686193 -0.102036
-0.812646 0.75424 -0.0519105
-1.13728 0.733856 0.0177814
-0.822813 0.764696 -0.0516226
-1.02331 0.724434 0.00279545
-1.03386 0.744323 0.00893243
-0.447846 0.515885 -0.145553
-0.448287 0.511136 -0.138728
-0.462873 0.57159 -0.139811
-0.433198 0.393744 -0.157768
-0.43536 0.406843 -0.153228
-0.45446 0.572989 -0.135739
-0.450062 0.46678 -0.168242
-0.444943 0.429266 -0.166471
-0.437402 0.4278 -0.143255
-0.710902 0.716193 -0.0833978
-0.702003 0.720688 -0.0842366
-0.809987 0.663934 -0.0649444
-0.828418 0.636451 -0.0511235
-0.711369 0.722256 -0.0841253
-0.71763 0.719572 -0.0826005
-0.802836 0.633352 -0.06359
-0.813542 0.719564 -0.0673148
-0.919652 0.492577 -0.0188554
-0.908341 0.381669 -0.0238965
-1.01289 0.595677 0.000610933
-0.907535 0.692267 -0.0343671
-1.15891 0.65032 0.0166716
-1.22949 0.50826 0.0179044
-0.900892 0.670393 -0.0267166
-0.897542 0.522325 -0.0339877
-0.909497 0.470976 -0.0255064
-0.82474 0.711935 -0.0559898
0.506729 0.137387 -0.148402
0.290256 0.203536 -0.205868
0.271706 0.189992 -0.217616
0.301618 0.101658 0.0173683
0.018835 0.305519 -0.204096
-0.116896 0.10771 -0.243088
-0.00860419 0.0520583 -0.258558
-0.0990067 0.316028 -0.197761
-0.103424 0.103772 -0.264439
0.0357574 0.284505 -0.214683
-0.117712 0.18475 -0.252017
-0.114845 0.157541 -0.254523
-0.0116323 0.23498 -0.231986
-0.337628 0.0448866 -0.200179
-0.190544 0.354286 -0.176121
-0.204074 0.308106 -0.213984
-0.241924 0.238656 -0.221342
-0.225778 0.0825289 -0.048867
-0.188852 0.220617 -0.231114
-0.195168 0.313453 -0.205898
-0.908592 0.130107 0.00191362
-0.891653 0.135902 -0.000533556
-0.975409 0.122378 -0.0299299
-0.989691 0.0601796 0.00091618
-0.997566 0.22223 -0.00798203
-0.982666 0.216809 -0.0163698
-0.975831 0.110595 0.00515345
0.0782966 -0.0451931 -0.0630491
0.0759708 -0.0109125 -0.0441485
-0.120458 -0.322846 -0.197536
-0.40378 -0.221102 -0.189567
-0.403903 -0.191967 -0.184587
-0.16362 -0.315756 -0.2089
-0.391516 -0.313245 -0.202509
-0.115488 -0.325406 -0.203114
-0.425472 -0.301895 -0.158454
-0.394632 -0.225141 -0.18857
-0.383076 -0.277751 -0.195457
-0.296538 -0.237128 -0.220238
-1.02343 -0.348569 0.018235
-1.02979 -0.235055 0.0244921
-0.872607 -0.0244652 0.0575553
-1.02519 -0.241123 0.00411106
-0.884465 -0.281285 -0.0233849
-1.02279 -0.0900725 -0.00462635
-0.927364 -0.251798 -0.0448213
-1.02525 -0.20663 0.00448966
-1.00251 -0.00605383 0.00840287
0.732519 -0.509564 -0.0765825
-0.420775 -0.460796 -0.157534
-0.425811 -0.39565 -0.162083
-0.18738 -0.362158 0.0149697
-0.17787 -0.334951 0.0187565
-0.1978 -0.348175 -0.00131094
-0.422733 -0.392477 -0.168942
-0.419917 -0.39318 -0.188943
-0.421883 -0.393353 -0.172809
-0.416893 -0.394641 -0.183062
-1.01684 -0.545751 0.00165281
-1.0866 -0.447162 0.0236958
-1.00272 -0.649321 0.00514602
-1.01065 -0.647403 -0.00746333
-0.875434 -0.397453 -0.0271728
-1.02343 -0.435122 0.00509913
-1.00361 -0.633949 0.00920103
-1.01307 -0.641362 -0.000875309
-1.03581 -0.429663 0.0211523
0.263433 -0.757435 -0.0439298
0.272983 -0.776589 -0.0771211
0.124398 -0.79667 -0.0542498
0.261567 -0.763876 -0.0508876
0.26928 -0.776104 -0.0711708
0.17725 -0.804462 -0.0624276
0.258799 -0.774296 -0.0629719
0.146162 -0.802089 -0.0572381
0.162096 -0.801481 -0.0585198
0.644457 -0.932138 -0.0223654
-0.350858 0.969969 -0.0115719
-0.344316 0.91794 -0.0288314
-0.319452 0.907366 -0.016145
-0.328296 0.909976 -0.0192655
0.788367 0.733848 -0.0673957
0.685277 0.752608 -0.0515078
0.699191 0.759902 -0.0831198
0.693391 0.753558 -0.0555585
0.687642 0.760215 -0.0796051
0.786404 0.738234 -0.0738927
0.683491 0.753851 -0.0646585
-0.204008 0.846199 -0.0259249
-0.228968 0.761183 -0.0748958
-0.208595 0.8049 -0.0592312
-0.202945 0.714882 -0.0809519
-0.209193 0.723328 -0.08875
-0.210976 0.852111 -0.0312161
-0.22629 0.816907 -0.0626521
-0.43177 0.696991 -0.0934894
-0.441229 0.62872 -0.105144
-0.480852 0.641479 -0.122573
-0.348256 0.683308 -0.10606
-0.347306 0.866042 -0.0697313
-0.323478 0.775231 -0.0407307
-0.709713 0.651998 -0.079367
-0.691257 0.718998 -0.0620536
-0.689567 0.738178 -0.110666
-0.718261 0.674352 -0.0961292
-0.724734 0.793337 -0.0646318
-0.770459 0.640422 -0.0683678
-0.723652 0.657577 -0.0905178
-0.724835 0.653941 -0.0845869
-0.755984 0.794522 -0.062281
1.05536 0.442642 0.0243304
1.04169 0.559634 0.0235737
1.05286 0.442385 0.0221
1.13288 0.438125 0.0200075
1.03028 0.687502 0.0148023
1.00769 0.64925 -0.00717826
1.05317 0.42176 0.0210522
0.286107 0.688851 -0.0962649
0.278424 0.673423 -0.0939925
0.292999 0.511044 -0.143042
0.283839 0.589632 -0.115788
0.294 0.437343 -0.179832
0.313351 0.490962 -0.161358
0.308763 0.5016 -0.151913
0.274052 0.587872 -0.122039
0.0707353 0.660755 -0.105784
0.0559944 0.531812 -0.131338
-0.466411 0.593456 -0.144902
-0.443672 0.477826 -0.138076
-0.4445 0.43062 -0.144762
-0.471661 0.441553 -0.163461
-0.454695 0.46626 -0.151545
-0.472773 0.48026 -0.158506
-0.751755 0.455642 -0.074142
1.0466 0.0151998 0.0220514
1.11485 0.247729 0.0172648
1.10893 0.160154 0.0212897
1.057 0.154379 0.0182432
1.04835 0.16154 0.00119852
1.0413 0.0133852 0.0151158
1.0452 0.320957 0.00277849
0.299935 0.21263 -0.204315
0.310427 0.215097 -0.210262
-0.00653316 0.242464 -0.228663
0.00742941 0.225234 -0.245429
-0.00314996 0.237401 -0.236158
-0.466204 0.216448 -0.186545
-0.459422 0.326073 -0.153936
-0.456859 0.32807 -0.168841
-0.459756 0.326068 -0.160978
-0.428551 0.211584 -0.148868
-0.45961 0.218836 -0.176211
-0.440962 0.215984 -0.154706
-0.453728 0.217753 -0.169316
-0.650293 0.040462 -0.111579
-0.898499 0.130184 -0.234831
-0.637771 0.0445766 -0.101047
-0.639726 0.0437501 -0.107783
0.875157 -0.296979 -0.00221444
1.04751 -0.27806 0.013194
0.882921 -0.332582 -0.0379791
1.02669 -0.362552 0.00275678
0.869518 -0.297123 -0.0234184
0.880798 -0.325878 -0.0301748
1.04792 -0.278303 0.00951024
1.01032 -0.141723 -0.000680493
1.02439 -0.159539 0.00993585
0.529626 -0.151255 -0.136556
0.549835 -0.229115 -0.135508
0.556587 -0.0223675 -0.149975
0.532953 -0.2273 -0.136604
0.560216 -0.13386 -0.14072
0.51732 -0.0221139 -0.146703
0.482713 -0.0136538 -0.156211
0.551027 -0.166631 -0.13341
0.560271 -0.151275 -0.134949
0.335083 -0.107937 -0.204721
0.280142 -0.138202 -0.181826
0.336967 -0.143994 -0.201661
0.305665 -0.184555 -0.196465
-0.384859 -0.267655 -0.171535
-0.559607 -0.117383 -0.137617
-0.552754 -0.166674 -0.124153
-0.570315 -0.0472937 -0.112615
-0.451863 -0.247229 -0.180116
-0.313554 -0.225616 -0.206863
-0.555057 -0.111696 -0.125836
-0.573012 -0.219601 -0.133027
-0.382852 -0.307471 -0.171241
-0.650952 -0.0258226 -0.120571
-0.627557 -0.0261415 -0.12177
-0.619493 -0.0298188 -0.115806
1.00556 -0.590807 0.00379946
1.12299 -0.600118 0.00896519
0.999812 -0.464938 -0.00543632
0.916172 -0.445271 -0.0114204
0.957051 -0.660895 -0.0310996
0.991513 -0.439533 0.00376555
0.910929 -0.467587 -0.062944
0.957526 -0.48934 -0.0184741
1.026 -0.599492 0.00216011
0.773396 -0.511737 -0.0711893
0.692248 -0.502432 -0.0963089
-0.523199 -0.367327 -0.13465
-0.408309 -0.484847 -0.164032
-0.434542 -0.550655 -0.144373
-0.419683 -0.551993 -0.12165
-0.421385 -0.475135 -0.153097
-0.529982 -0.387828 -0.142329
-0.417148 -0.486599 -0.157632
-0.416524 -0.552595 -0.137842
-0.414241 -0.550734 -0.126913
-0.533417 -0.385369 -0.134761
-0.617335 -0.375302 -0.104994
-0.607251 -0.36971 -0.116567
0.970973 -0.750833 -0.00654961
1.04606 -0.735586 0.00996657
0.267132 -0.763725 -0.0739292
0.145801 -0.807387 -0.0551717
-0.103342 -0.818675 -0.0590986
-0.0569798 -0.807951 -0.0551399
-0.220795 -0.762013 -0.0733246
-0.603595 -0.761525 -0.0696101
-0.574293 -0.884481 -0.0254445
-0.365876 -1.00093 -0.0133006
-0.528196 -0.899313 -0.0282194
-0.3804 -0.905471 -0.0332423
-0.434942 -0.933948 -0.017473
0.682667 0.850008 -0.0372733
0.679072 0.868617 -0.044986
0.808423 0.781874 -0.0377392
0.693862 0.857389 -0.0393817
0.668837 0.753482 -0.0789286
0.661451 0.750939 -0.0714665
0.658251 0.749654 -0.0645973
0.279582 0.759281 -0.0862023
0.290316 0.891517 -0.0421352
0.361769 0.819488 -0.0627513
0.291831 0.837704 -0.0863262
0.281909 0.830685 -0.0777392
0.306306 0.822409 -0.0430174
0.310378 0.829995 -0.0679287
0.310251 0.822879 -0.0498696
0.361252 0.824057 -0.0519741
0.0765456 0.723676 -0.0826641
0.149739 0.89825 -0.0286706
0.0731529 0.691009 -0.0941361
0.233715 0.861831 -0.0404641
0.219844 0.867661 -0.0338098
0.28224 0.873152 -0.0184775
0.190565 0.838319 -0.0520645
0.285831 0.882312 -0.0396622
-0.925265 0.754132 -0.0191058
-0.912627 0.748533 -0.0320498
-0.916458 0.759084 -0.0275803
-1.04851 0.701212 0.0213225
-1.04079 0.723021 0.0193208
-1.02261 0.727231 0.00371614
-1.03519 0.737737 0.0159873
-1.02895 0.720185 0.0111484
0.759888 0.564711 -0.0697065
0.721679 0.56091 -0.0823888
0.315607 0.542063 -0.133867
0.310446 0.449536 -0.169034
0.316275 0.447827 -0.177131
0.291138 0.49502 -0.150211
0.294915 0.491362 -0.158382
0.191249 0.584188 -0.11648
0.190224 0.518109 -0.134096
0.177182 0.409124 -0.180104
0.170877 0.438764 -0.153895
-0.450634 0.553441 -0.131355
-0.44305 0.525312 -0.130702
-0.450289 0.536136 -0.156594
-0.445377 0.527237 -0.134208
-0.450738 0.536076 -0.138853
-0.458437 0.53623 -0.152332
-0.456443 0.536214 -0.145452
-0.798729 0.46417 -0.0604204
-0.68375 0.672995 -0.0805232
-0.454067 0.663908 -0.104871
-0.710321 0.636661 -0.0893089
-0.695497 0.68596 -0.0980893
-0.716556 0.640748 -0.0844688
-0.450624 0.65981 -0.101189
-0.655761 0.663033 -0.0926597
-1.0984 0.538848 0.0207125
-0.820586 0.67295 -0.0431028
-0.891479 0.498944 -0.0208438
-0.898905 0.406675 -0.0444812
-0.993997 0.428496 -0.00962358
-1.13623 0.425856 0.014314
-0.906007 0.415123 -0.0192011
-1.05144 0.63916 0.0198034
-1.02534 0.415912 0.00445468
0.7654 0.0233389 -0.0737347
0.291525 0.276018 -0.214692
0.290201 0.211715 -0.202669
0.254043 0.310059 -0.192593
0.276137 0.311458 -0.196135
0.289898 0.318714 -0.210031
0.28519 0.319958 -0.206865
0.275524 0.322279 -0.199778
-0.11602 0.0614391 -0.256226
0.00315263 0.254848 -0.224861
-0.127637 0.214523 -0.242025
-0.110503 0.221319 -0.224044
-0.113294 0.215323 -0.235189
-0.126955 0.217893 -0.220914
-0.443131 0.197774 -0.148071
-0.4521 0.2008 -0.174124
-0.137997 0.215933 -0.248046
-0.447748 0.198329 -0.154569
-0.451242 0.199307 -0.168731
-0.145026 0.00384835 -0.263794
-0.449906 0.198801 -0.162137
-0.643387 0.0393921 -0.105262
-0.884544 0.18178 -0.00131017
-0.941577 0.126912 -0.0741484
-0.942622 0.134164 -0.0662775
-0.92967 0.143906 -0.0924997
-0.97288 0.130886 -0.0169108
-0.939728 0.138397 -0.0585729
-0.969387 0.103867 -0.0292198
-0.925712 0.123596 -0.0988296
0.617009 -0.155527 -0.111974
-0.126936 -0.0124441 -0.243815
-0.203946 -0.170106 -0.232693
-0.32632 -0.232307 -0.20117
-0.397162 -0.287469 -0.168079
-0.404341 -0.196618 -0.169526
-0.143343 -0.00219292 -0.248079
-0.411069 -0.218492 -0.163398
-0.300131 -0.269981 -0.219866
-0.431463 -0.235911 -0.188238
-0.543518 -0.163736 -0.133606
-0.627479 -0.0194541 -0.122727
-0.552755 -0.102702 -0.126834
-0.548767 -0.109784 -0.135371
-0.618061 -0.0282035 -0.118099
-0.568226 -0.0393152 -0.124711
-0.57147 -0.0478454 -0.130573
-1.03926 -0.350741 0.0220676
-0.870458 -0.309795 -0.0186239
-1.11706 -0.288035 0.0238752
-1.11559 -0.216805 0.0209021
-1.03023 -0.299623 0.0191083
-1.0232 -0.258122 -0.00145146
-0.884193 -0.33354 -0.0458943
-1.01744 -0.31564 0.00142183
0.725736 -0.527745 -0.0840849
0.735914 -0.524766 -0.0745766
-0.0961396 -0.481304 -0.139141
-0.0356144 -0.458225 -0.147703
-0.0378513 -0.608948 -0.110792
-0.0862564 -0.631181 -0.111287
-0.522898 -0.388755 -0.152029
-0.527024 -0.488276 -0.139218
-0.536595 -0.517834 -0.143936
-0.617676 -0.367944 -0.112333
-0.529291 -0.380025 -0.131594
-0.523899 -0.510318 -0.144757
-0.543419 -0.386495 -0.138645
-0.548598 -0.381803 -0.132085
-1.01765 -0.548365 -0.00456382
-1.01605 -0.538344 0.00592381
-1.03599 -0.416599 0.0250457
-1.01981 -0.48573 0.0108053
-1.00908 -0.50463 -0.00351012
-1.01055 -0.662637 -0.0112988
-1.01723 -0.540332 -0.00146288
0.266266 -0.757598 -0.0427136
0.268732 -0.770812 -0.0659864
0.264936 -0.762171 -0.0503302
0.149154 -0.788311 -0.0542179
0.261383 -0.76952 -0.0560143
0.214959 -0.788967 -0.0638598
0.260545 -0.772764 -0.0573096
0.153605 -0.805198 -0.0638389
0.159753 -0.790984 -0.0611213
0.636955 -0.998185 -0.0134704
0.625942 -0.935689 -0.036896
0.626335 -0.930738 -0.0310023
0.65054 -0.934154 -0.0182494
0.627034 -0.929276 -0.026207
0.436148 -0.932434 -0.0171187
0.358603 -0.925037 -0.0251717
-0.717411 0.900108 -0.0487796
-0.71262 0.889093 -0.0365284
-0.760477 0.887064 -0.0382062
1.02383 0.723143 0.014961
1.01512 0.701533 0.0184058
0.682148 0.770728 -0.0577881
0.69133 0.742803 -0.0887159
0.671586 0.761315 -0.0573226
0.681151 0.727292 -0.0790612
0.688677 0.732601 -0.084048
-0.182762 0.848882 -0.0373083
-0.203248 0.675742 -0.0968779
-0.217522 0.748143 -0.0731926
-0.205515 0.720383 -0.0978729
-0.201823 0.817339 -0.071091
-0.196975 0.717798 -0.0823218
-0.209891 0.685567 -0.103823
-0.219477 0.8145 -0.0599181
-0.454192 0.636224 -0.0959877
-0.343962 0.830156 -0.039315
-0.334317 0.737271 -0.0424689
-0.360768 0.676678 -0.121093
-0.423037 0.707655 -0.0887805
-0.351376 0.913525 -0.0510353
-0.693578 0.655246 -0.0739296
-0.763182 0.772824 -0.0617577
-0.705812 0.654559 -0.0805396
0.816627 0.562401 -0.0524176
1.0045 0.574651 -0.0052554
1.01692 0.413296 0.0299591
1.01058 0.638203 -0.00113864
1.01334 0.680561 0.0283814
1.01544 0.436972 0.0257082
1.01687 0.568591 0.00356704
1.0242 0.668194 0.00387514
1.01881 0.673282 0.0227233
1.01361 0.463893 0.0157662
0.784722 0.68847 -0.0683156
0.765961 0.562117 -0.0669278
0.76533 0.557284 -0.0717799
0.286138 0.665466 -0.088873
0.0515269 0.535094 -0.0167677
0.314005 0.432957 -0.18988
0.285447 0.609724 -0.123932
0.282003 0.585166 -0.113106
0.289939 0.409718 -0.164078
0.287379 0.678915 -0.0893097
0.286722 0.687746 -0.0920614
0.0249082 0.488726 -0.0303977
0.112998 0.710644 -0.232422
0.0581079 0.661937 -0.0958935
0.0449151 0.664868 -0.102928
-0.32504 0.57343 -0.103421
-0.452484 0.592042 -0.146702
-0.316607 0.395062 -0.149145
-0.392852 0.404901 -0.172234
-0.439302 0.477866 -0.150943
-0.437335 0.510898 -0.13107
-0.345741 0.595928 -0.138484
-0.453146 0.479859 -0.164537
-0.372081 0.531681 -0.151467
-0.675355 0.486855 -0.088187
-0.750833 0.341504 -0.089222
-0.684424 0.524799 -0.102979
-0.705851 0.489996 -0.0859405
-0.688356 0.469126 -0.0979779
-0.718251 0.368249 -0.084511
-0.763632 0.470338 -0.0702056
0.885726 0.0704645 -0.0473347
1.00415 0.336285 -0.00489039
1.03317 0.106339 0.0281078
0.894407 0.0887069 -0.0409509
1.02297 0.221847 -0.00182513
1.0202 0.309512 0.0283845
0.880004 0.149169 -0.046498
0.932584 0.151953 -0.0186905
1.0319 0.0144151 0.0256867
1.02686 0.0536887 0.00677649
0.314679 0.337246 -0.194664
0.296822 0.335191 -0.188612
0.299852 0.252071 -0.204488
0.28048 0.235083 -0.22557
0.299486 0.24514 -0.209228
0.29528 0.239282 -0.218476
0.300096 0.240953 -0.215184
0.070361 0.126077 -0.255565
-0.130251 0.251501 -0.204878
-0.215032 0.236078 -0.23324
-0.205027 0.243203 -0.224388
-0.114174 0.257709 -0.227085
0.00810433 0.176665 -0.244498
-0.141265 0.253097 -0.211809
-0.120117 0.250053 -0.220382
-0.348597 0.279439 -0.169787
-0.434795 0.312555 -0.163531
-0.419183 0.196267 -0.1639
-0.450772 0.33289 -0.167566
-0.451785 0.316767 -0.160933
-0.457532 0.326605 -0.162897
-0.639193 0.0596942 -0.123229
-0.672526 0.0989182 -0.102678
-0.641 0.0462232 -0.0998955
-0.632658 0.0546827 -0.118269
-0.635525 0.0518195 -0.109089
1.02534 -0.0244455 0.001725
1.04434 -0.267856 0.00666665
0.881217 -0.23852 -0.0488837
0.878518 -0.195214 -0.0462628
0.884852 -0.132708 -0.0241738
0.884039 -0.246106 -0.00621292
1.04192 -0.272006 0.0144415
0.880886 -0.0581753 -0.0240947
0.498953 -0.0849697 -0.15298
0.624171 -0.14907 -0.109438
0.461597 -0.335297 -0.165212
-0.127954 -0.0937262 -0.258147
-0.1187 -0.088755 -0.263431
-0.116998 -0.0963949 -0.270139
-0.32633 -0.209087 -0.198748
-0.424939 -0.230148 -0.173586
-0.354362 -0.0313129 -0.21265
-0.57287 -0.164701 -0.114936
-0.408698 -0.306827 -0.183032
-0.56209 -0.106876 -0.120793
-0.592174 -0.0387914 -0.134439
-0.642489 -0.0394242 -0.113288
-0.626436 -0.0261355 -0.120217
-0.620854 -0.0233959 -0.123135
0.940139 -0.494912 -0.080278
0.915183 -0.437408 -0.0148886
0.9338 -0.391971 -0.0767325
0.925221 -0.369177 -0.0357488
1.02739 -0.578501 0.0109685
0.982699 -0.649187 0.00833753
1.00354 -0.63772 0.0150638
0.933347 -0.386375 -0.066598
0.929595 -0.445798 -0.0183128
0.72889 -0.525075 -0.0770742
0.679925 -0.550115 -0.0925465
0.716258 -0.543185 -0.0835673
0.116543 -0.589519 -0.122574
-0.129831 -0.641456 -0.107854
-0.0905735 -0.643415 -0.114191
-0.416095 -0.447724 -0.14452
-0.409602 -0.356576 -0.16256
-0.304016 -0.476544 -0.148705
-0.511179 -0.53631 -0.15015
-0.431114 -0.540981 -0.160367
-0.509252 -0.383308 -0.139299
-0.506457 -0.523773 -0.130807
-0.413191 -0.52556 -0.125579
-0.439816 -0.46729 -0.169336
-0.622624 -0.374134 -0.101644
-0.615034 -0.378812 -0.118275
-0.617391 -0.37683 -0.110555
0.260626 -0.749873 -0.0592525
0.150114 -0.809596 -0.0554033
0.260795 -0.760588 -0.0736581
0.260105 -0.755827 -0.0677366
-0.0496405 -0.798861 -0.0540059
-0.0748001 -0.801326 -0.0593473
-0.200902 -0.787246 -0.06671
-0.451818 -0.74669 -0.0765272
-0.727926 -0.763623 -0.0685505
-0.79913 -0.637999 -0.0596941
-0.619997 -0.779244 -0.0648168
-0.501077 -0.940016 -0.0144192
-0.44205 -0.93686 -0.0225909
-0.531932 -0.903736 -0.02356
-0.439825 -0.933387 -0.0175922
-0.477097 -0.933841 -0.0183921
0.677265 0.7505 -0.0915591
0.663495 0.74382 -0.0758575
0.772296 0.798682 -0.0423651
0.668166 0.803484 -0.0613809
0.668872 0.745933 -0.0837784
0.65574 0.787032 -0.0441519
0.700917 0.872111 -0.0339966
0.654114 0.802831 -0.0573912
0.360783 0.870786 -0.0386442
0.371781 0.808157 -0.0523614
0.301201 0.837271 -0.0762656
0.289419 0.869466 -0.0428578
0.294258 0.836505 -0.0742546
0.315244 0.818282 -0.0556964
0.281116 0.707735 -0.0937288
0.201013 0.981139 -0.0256993
0.184603 0.67493 -0.0978809
0.190617 0.901069 -0.0265637
0.29086 0.845817 -0.0151233
0.0700117 0.694839 -0.0934194
0.0417823 0.775293 -0.0583264
0.284463 0.704618 -0.0753271
0.285414 0.845927 -0.0119642
0.16539 0.813047 -0.0548109
-1.06525 0.790808 -0.108177
-0.921738 0.731062 -0.0176801
-0.914215 0.746635 -0.0370784
-0.914661 0.738061 -0.0261061
-0.911649 0.749981 -0.0330703
-0.997616 0.731843 -0.018505
-0.998747 0.738258 -0.00308154
0.707352 0.33217 -0.0932302
0.758617 0.572398 -0.068872
0.740102 0.310971 -0.0699187
0.714884 0.308792 -0.0839495
0.764612 0.5634 -0.0730017
0.292273 0.46008 -0.164205
0.313019 0.556242 -0.135302
0.308964 0.477313 -0.158615
0.33023 0.539152 -0.134634
0.545845 0.550928 -0.129164
0.205312 0.430167 -0.167871
0.174642 0.602275 -0.11815
0.204343 0.512538 -0.145981
0.138735 0.419894 -0.166637
-0.444734 0.556407 -0.14979
-0.447759 0.535114 -0.136672
-0.457481 0.556927 -0.144433
-0.449792 0.537439 -0.132541
-0.455828 0.548451 -0.139086
-0.451427 0.541322 -0.133993
-0.452296 0.679894 -0.0921218
-0.469035 0.672053 -0.106968
-0.68695 0.718355 -0.0966724
-0.693173 0.706655 -0.0752935
-0.805078 0.482448 -0.0508762
-0.66515 0.687795 -0.0977719
-0.71771 0.652365 -0.0913951
-0.719329 0.648549 -0.0847971
-0.787177 0.499847 -0.0624743
-1.03623 0.634355 0.0219683
-1.06249 0.760174 -0.101788
-1.13783 0.465163 0.0198493
-0.917093 0.673348 -0.0136041
-1.03119 0.6924 -0.0080141
-0.891938 0.689873 -0.0429423
-0.930598 0.483317 -0.0327709
0.608756 0.129623 -0.118186
0.766954 0.0136628 -0.0691848
0.619129 0.207398 -0.115391
0.580486 0.26119 -0.130176
0.764946 0.0113511 -0.0883223
0.2908 0.331026 -0.188607
0.312356 0.315369 -0.204898
0.294312 0.325247 -0.198664
0.0754194 0.140419 -0.258712
-0.00170934 0.113377 -0.270862
-0.0322535 0.145751 -0.252712
-0.0143863 0.119409 -0.265777
-0.133936 0.198303 -0.258251
-0.130331 0.200165 -0.251171
-0.239616 0.261927 -0.225371
-0.352834 0.229528 -0.173099
-0.438113 0.199801 -0.150749
-0.443938 0.325319 -0.160267
-0.241835 0.250046 -0.22115
-0.150131 0.206556 -0.259974
-0.444295 0.204361 -0.158496
-0.639775 0.0379699 -0.103233
-0.659613 0.00337627 -0.10885
-0.633509 0.0335733 -0.113911
-0.639603 0.0372467 -0.106945
-0.982173 0.155765 -0.034407
-0.965801 0.228397 -0.0243554
-1.00476 0.10598 0.0171545
-1.10412 0.224626 0.00956784
-0.968174 0.207348 -0.0239234
-1.00372 0.285285 0.00834447
0.620133 -0.141692 -0.111764
0.42287 -0.132829 -0.166151
0.436985 -0.154257 -0.174096
0.425243 -0.124865 -0.172442
0.583085 -0.229911 -0.121875
0.569357 -0.245442 -0.132247
-0.0435809 -0.347789 -0.185884
-0.320981 -0.27017 -0.220745
-0.330367 -0.2649 -0.214926
-0.401355 -0.294198 -0.192418
-0.433086 -0.209414 -0.156375
-0.335855 -0.0579048 -0.191212
-0.40465 -0.314875 -0.170132
-0.308983 -0.210857 -0.205655
-0.327374 -0.0286798 -0.216747
-0.552418 -0.101542 -0.122005
-0.584273 -0.0454346 -0.130709
-0.582605 -0.0450486 -0.119173
-0.553177 -0.156752 -0.125705
-0.554658 -0.104104 -0.12728
-0.588716 -0.0443413 -0.128195
-0.571814 -0.0519367 -0.120483
-0.570232 -0.0481507 -0.125158
-1.03808 -0.242635 0.0212934
-0.873555 -0.304936 -0.0127185
-1.01666 -0.297167 0.0227985
-1.04787 -0.181186 0.0188645
-0.99873 -0.307233 -0.00159127
-1.00473 -0.256603 -0.00690755
-1.02442 -0.184867 -0.00983376
-1.00445 -0.352464 -0.000386608
-0.877592 -0.313514 -0.0162368
0.730206 -0.523896 -0.0761869
0.722623 -0.528198 -0.086555
0.184931 -0.490352 -0.150877
0.048451 -0.359945 -0.185897
-0.0440751 -0.642934 -0.109102
-0.429749 -0.384144 -0.181728
-0.0760831 -0.629654 -0.115101
-0.413166 -0.392212 -0.160019
-0.426916 -0.390404 -0.174126
-0.416493 -0.392101 -0.170296
-0.418963 -0.392562 -0.17419
-0.523833 -0.386857 -0.145178
-0.624655 -0.361167 -0.1079
-0.519869 -0.512732 -0.141074
-0.521563 -0.510605 -0.147729
-0.538333 -0.384293 -0.132965
-0.53895 -0.399578 -0.138964
-0.993953 -0.655861 0.0174021
-1.01816 -0.497588 0.0106356
-1.01135 -0.493988 0.00417239
-1.02218 -0.548898 0.00737654
-1.00125 -0.677953 0.0119048
-0.883152 -0.36422 -0.0487577
-0.881475 -0.36546 -0.0216838
0.306964 -0.800326 -0.0697548
0.112329 -0.71255 -0.0901722
0.123153 -0.715324 -0.082938
0.266544 -0.753547 -0.0420794
0.270723 -0.77624 -0.0616724
0.266625 -0.77041 -0.0555711
0.149561 -0.795621 -0.0532999
0.253345 -0.777635 -0.0631522
0.576666 -0.924854 -0.0136857
0.615157 -0.940076 -0.0401418
0.614138 -0.925693 -0.0194978
0.620903 -0.926496 -0.0214068
0.625826 -0.932584 -0.0330012
0.623367 -0.929709 -0.0280313
0.381315 -1.07084 -0.0149156
0.282007 -0.917732 -0.0275568
-0.414263 0.939447 -0.0706378
-0.414633 0.946057 -0.0581209
-0.405985 1.02007 -0.0470793
-0.70206 0.905848 -0.0553364
-0.712231 0.893391 -0.0376399
-0.717269 0.898791 -0.0485947
-0.715126 0.89086 -0.0425908
0.995528 0.746765 -0.00206574
0.988947 0.709838 0.00346212
0.78616 0.740205 -0.0650052
0.0703168 0.679719 -0.0989799
-0.205479 0.841798 -0.0203085
-0.233726 0.972482 -0.0212235
-0.187421 0.735822 -0.101661
-0.201767 0.693304 -0.107572
-0.183765 0.899254 -0.0304296
-0.200439 0.715875 -0.0761815
-0.20534 0.679335 -0.0917819
-0.209484 0.759868 -0.07467
-0.491549 0.706754 -0.0955677
-0.3879 0.886402 -0.0832365
-0.328749 0.779418 -0.0638706
-0.355876 0.664268 -0.122532
-0.457158 0.714927 -0.0847933
-0.463849 0.633338 -0.104571
-0.668646 0.717781 -0.0598416
-0.683777 0.895436 -0.0871059
-0.687571 0.835563 -0.0556743
-0.657406 0.883006 -0.0833947
-0.680972 0.64555 -0.0762729
-0.708391 0.876204 -0.0736923
-0.709905 0.665794 -0.0942615
-0.758962 0.727324 -0.0723186
-0.75706 0.626782 -0.0732639
0.874083 0.585636 -0.0416536
1.04852 0.42632 0.0306275
0.911515 0.51369 -0.0262117
1.04391 0.429132 0.0300246
1.02873 0.685037 -0.00648182
0.805277 0.562752 -0.0558111
0.844587 0.561945 -0.0454429
1.02691 0.532644 0.0346276
1.01777 0.442484 0.00733357
1.03919 0.435591 0.0277944
0.784738 0.478944 -0.0620087
0.780199 0.66304 -0.0628111
0.684784 0.422243 -0.0912957
0.773428 0.699417 -0.073871
0.68431 0.449805 -0.100463
0.773787 0.690123 -0.0693724
0.772955 0.563648 -0.065883
0.419451 0.469459 -0.155824
0.446524 0.477968 -0.15404
0.297045 0.679758 -0.0860159
0.293787 0.669869 -0.103541
0.297117 0.420095 -0.162228
0.274547 0.594113 -0.106711
0.270821 0.595022 -0.126569
0.290874 0.419511 -0.188809
0.287791 0.68434 -0.08531
0.287664 0.689687 -0.0920823
-0.228109 0.592452 -0.11678
-0.495103 0.607863 -0.145493
-0.453076 0.438308 -0.166305
-0.368 0.587269 -0.153254
-0.451673 0.484894 -0.155833
-0.434334 0.33922 -0.149779
-0.459191 0.530664 -0.169361
-0.454428 0.445249 -0.163932
-0.335253 0.508123 -0.117252
-0.754723 0.476735 -0.0720052
-0.66147 0.501597 -0.0798217
-0.708722 0.528981 -0.0958613
-0.714531 0.348697 -0.0842249
-0.689572 0.500545 -0.0770859
-0.706167 0.499972 -0.0883777
-0.705232 0.366817 -0.0926032
-0.690057 0.507664 -0.0854857
0.913757 0.0567919 -0.0358781
0.899401 0.0380756 -0.0410412
1.02224 0.108531 0.0279145
0.900747 0.165381 -0.0189846
1.00794 0.109457 0.000634426
0.889663 0.161208 -0.0432384
1.01876 0.00561531 0.0026996
1.04597 0.202048 0.0138792
1.01238 0.268269 0.0203387
0.992534 0.291593 0.00540267
0.791524 0.0215979 -0.0636979
0.293798 0.248107 -0.200103
0.29692 0.249395 -0.206769
0.332008 0.243796 -0.22096
0.298566 0.248617 -0.215022
0.312409 0.238428 -0.219484
-0.0115942 0.304339 -0.205963
-0.0316113 0.244011 -0.224362
-0.113185 0.295673 -0.203685
0.0772856 0.109375 -0.25958
-0.135309 0.239446 -0.205193
-0.203302 0.00637919 -0.226028
-0.132142 0.301662 -0.208172
-0.185484 0.0178759 -0.245862
-0.00413517 0.149024 -0.246396
-0.531023 0.125019 -0.13671
-0.418751 0.17305 -0.148238
-0.535777 0.314874 -0.140855
-0.428473 0.189061 -0.176097
-0.363438 0.320671 -0.206423
-0.444151 0.199196 -0.16757
-0.343618 0.252647 -0.172787
-0.347049 0.211216 -0.179896
-0.44701 0.195701 -0.152761
-0.646958 0.0727884 -0.0997195
-0.645676 0.0510788 -0.107636
-0.640516 0.0491503 -0.100238
0.927874 -0.194045 -0.0444726
1.03071 -0.291703 0.0108653
0.85958 -0.119548 -0.0757734
1.04015 -0.271873 0.0154103
0.882458 -0.058465 -0.0975568
0.866189 -0.0405466 -0.0221485
0.870325 -0.19308 -0.0133558
1.02486 -0.269616 0.0113993
0.854268 -0.135323 -0.023896
0.890217 -0.268899 -0.0555678
0.805568 -0.291722 -0.0637592
0.766569 -0.265768 -0.0658874
0.55965 -0.245777 -0.136577
0.562992 -0.243258 -0.1297
0.665509 -0.154122 -0.105308
0.631645 -0.160431 -0.1027
0.63436 -0.153635 -0.107674
0.429311 -0.133085 -0.161646
0.429824 -0.13376 -0.166712
-0.126793 -0.121263 -0.253447
-0.127936 -0.116778 -0.258866
-0.121397 -0.115515 -0.269448
-0.135516 -0.117491 -0.259864
-0.427307 -0.226862 -0.148376
-0.355418 0.0067201 -0.170552
-0.573222 -0.110915 -0.138426
-0.560044 -0.144816 -0.118542
-0.313223 -0.220049 -0.198863
-0.6176 -0.029745 -0.122079
-0.605847 -0.0381186 -0.119341
0.911311 -0.392079 -0.0768511
0.89301 -0.44485 -0.0214056
0.985325 -0.348595 0.0269071
1.00906 -0.469572 0.00227556
1.01165 -0.48102 0.000760279
0.667396 -0.590843 -0.0894493
0.741147 -0.53234 -0.0736339
0.713919 -0.532321 -0.0923854
0.728626 -0.565097 -0.0756742
-0.106751 -0.629521 -0.106294
-0.135123 -0.650242 -0.113415
-0.0925726 -0.640831 -0.109647
-0.379973 -0.591619 -0.118019
-0.416202 -0.601573 -0.122702
-0.41229 -0.388082 -0.171047
-0.387148 -0.61835 -0.115871
-0.409338 -0.447314 -0.150658
-0.439143 -0.451755 -0.163471
-0.410979 -0.523284 -0.124616
-0.695023 -0.359011 -0.0949195
-0.619639 -0.377593 -0.114169
-0.614949 -0.37789 -0.113493
0.24803 -0.726326 -0.0742956
0.262695 -0.814407 -0.054924
0.152149 -0.818188 -0.0492535
0.13086 -0.813569 -0.0546461
0.256919 -0.748687 -0.0526975
0.271818 -0.73805 -0.0792949
0.258333 -0.751731 -0.0635732
0.256225 -0.755686 -0.0700387
-0.0588851 -0.767 -0.060791
-0.0387225 -0.788166 -0.0655218
-0.0787247 -0.786979 -0.0606394
-0.164395 -0.757214 -0.0738783
-0.414124 -0.731629 -0.0714076
-0.468776 -0.815162 -0.0592177
-0.415638 -0.781083 -0.0853639
-0.469357 -0.78967 -0.060002
-0.438984 -0.730654 -0.0780007
-0.435642 -0.75476 -0.0772718
-0.753591 -0.628267 -0.0691529
-0.654361 -0.747423 -0.0722941
-0.622717 -0.745637 -0.0744359
-0.448943 -0.914912 -0.0158036
-0.443284 -0.928295 -0.0260043
-0.554722 -0.910531 -0.0220817
-0.525607 -0.908756 -0.0272587
-0.443285 -0.923579 -0.0197287
0.75376 0.682824 -0.072108
0.661421 0.721582 -0.0742494
0.676935 0.874558 -0.0330107
0.671754 0.731757 -0.0817799
0.644703 0.703385 -0.0786842
0.648612 0.729271 -0.0801225
0.678449 0.74 -0.0892302
0.309067 0.878296 -0.04493
0.308175 0.82742 -0.0843533
0.437448 0.765225 -0.0662896
0.307964 0.824514 -0.0717839
0.313931 0.822468 -0.0673362
0.300142 0.87829 -0.0380901
0.298402 0.832216 -0.0776154
0.289807 0.834547 -0.0740821
0.299911 0.716228 -0.0920108
0.281803 0.831477 -0.0430692
0.160337 0.665149 -0.101364
0.0775489 0.690531 -0.0889534
0.0728314 0.777007 -0.0552754
0.280259 0.832157 -0.0500348
0.272449 0.836938 -0.0563752
0.0743656 0.688702 -0.0960031
0.288953 0.856577 -0.0168471
0.123684 0.8176 -0.0530211
-0.3393 0.839247 -0.062504
-0.33269 0.821493 -0.0539896
-0.326529 0.82256 -0.0567788
-0.834713 0.732314 -0.064081
-0.901561 0.720319 -0.0130228
-0.906075 0.779334 -0.048888
-0.905704 0.723755 -0.0142151
-0.900034 0.736682 -0.0323455
-0.903995 0.747201 -0.036204
0.709464 0.346171 -0.103529
0.704174 0.420897 -0.0841154
0.706454 0.441922 -0.0890296
0.716721 0.348611 -0.0804754
0.749248 0.561508 -0.0800674
0.715331 0.357185 -0.094359
0.759179 0.56322 -0.0717714
0.758662 0.334584 -0.07219
0.462977 0.476685 -0.148669
0.460029 0.499359 -0.153025
0.535441 0.510528 -0.134463
0.292931 0.456513 -0.173455
0.309929 0.459035 -0.156846
0.333976 0.558072 -0.130502
0.316634 0.4603 -0.163161
0.224834 0.520122 -0.150513
0.208791 0.436444 -0.171573
0.222269 0.415629 -0.174122
-0.19543 0.654499 -0.102035
-0.440896 0.413865 -0.140665
-0.443725 0.415425 -0.152705
-0.449272 0.409194 -0.147234
-0.444862 0.538703 -0.135442
-0.664025 0.674407 -0.0803219
-0.440888 0.663607 -0.0949826
-0.788107 0.476073 -0.0547072
-0.678849 0.712565 -0.101092
-0.710391 0.647472 -0.0835644
-0.447929 0.667319 -0.0979913
-0.707138 0.651117 -0.084593
-0.684368 0.679712 -0.0806512
-0.992424 0.378883 -0.0113075
-0.977624 0.68682 -0.0100823
-0.922055 0.407968 -0.0346813
-0.991602 0.69574 -0.0190598
-0.807545 0.628653 -0.0428728
-0.912754 0.361489 -0.01226
-1.02188 0.678524 0.00788547
-0.917229 0.703161 -0.0507293
-0.899368 0.413551 -0.0261317
-0.906098 0.650502 -0.0165338
0.629647 0.0693726 -0.106066
0.824437 0.08068 -0.353811
0.627952 0.0720619 -0.145759
0.750991 0.0589165 -0.0769099
0.813953 0.0897828 -0.363335
0.286567 0.339622 -0.211826
0.292406 0.336945 -0.206279
0.292661 0.318499 -0.197903
0.298739 0.327019 -0.204644
0.298171 0.323613 -0.199839
-0.0290511 0.111725 -0.263617
0.106796 0.149037 -0.250037
-0.0508947 0.303538 -0.213453
-0.0400435 0.313911 -0.203542
-0.0165964 0.108123 -0.272836
-0.194808 0.295276 -0.210443
-0.191466 0.294285 -0.215056
-0.115181 0.323164 -0.189614
-0.434928 0.334776 -0.178997
-0.137671 0.194884 -0.241961
-0.23251 0.255479 -0.226754
-0.645609 0.0177253 -0.119082
-0.660447 0.0232548 -0.0952952
-0.652118 0.0310045 -0.112817
-0.677773 0.0301354 -0.0945896
-0.98575 0.228094 -0.0275894
-0.953309 0.109878 0.00899031
-0.992053 0.223616 0.0132084
-0.978348 0.293808 0.0121707
-0.980367 0.119122 -0.0351778
-0.971952 0.152033 0.0038993
-0.966836 0.106203 0.0139586
-0.990675 0.228225 -0.0253531
0.795458 -0.0044046 -0.347268
0.797977 -0.0226139 -0.292218
0.643406 -0.137779 -0.124463
0.625964 -0.146841 -0.103855
0.817437 -0.0112232 -0.344157
0.613433 -0.141912 -0.11481
0.559866 -0.290488 -0.129614
0.559818 -0.246948 -0.126802
0.452988 -0.130691 -0.175164
0.430042 -0.132338 -0.160376
0.442788 -0.131947 -0.171127
0.433147 -0.129477 -0.165786
0.578555 -0.246015 -0.123537
-0.145422 -0.145421 -0.266163
-0.137832 -0.14845 -0.240137
-0.310746 -0.230638 -0.196719
-0.43817 -0.217676 -0.157984
-0.430611 -0.238642 -0.197034
-0.320412 -0.0497562 -0.216708
-0.412062 -0.327802 -0.182338
-0.351701 -0.0452565 -0.193168
-0.320158 -0.254112 -0.21509
-0.578971 -0.045265 -0.105291
-0.555449 -0.156532 -0.131922
-0.549176 -0.148872 -0.128207
-0.551205 -0.0956754 -0.120699
-0.558797 -0.0995759 -0.1336
-0.554177 -0.101217 -0.126823
-0.58341 -0.0477651 -0.112885
-1.04605 -0.172038 0.00336099
-0.889023 -0.0678186 -0.0320107
-1.07743 -0.133037 -0.0271321
-1.14326 -0.240599 0.0238564
-1.27816 0.0139539 -0.0502597
-1.08309 -0.133884 -0.03985
-1.08046 -0.136805 -0.0569159
0.727465 -0.526866 -0.080609
0.438573 -0.321843 -0.165316
0.429721 -0.405122 -0.162446
0.407566 -0.326904 -0.173733
0.154795 -0.498222 -0.16044
-0.0332699 -0.632429 -0.111777
0.131782 -0.47484 -0.153335
0.174834 -0.439976 -0.163999
0.0145333 -0.330644 -0.185378
-0.405401 -0.549413 -0.132827
-0.0825581 -0.627174 -0.113126
-0.414912 -0.397314 -0.168431
-0.41004 -0.40303 -0.157219
-0.414162 -0.408071 -0.158547
-0.620979 -0.365284 -0.107646
-0.512203 -0.507033 -0.152105
-0.692656 -0.399655 -0.0938096
-0.664913 -0.384289 -0.0968258
-0.504953 -0.51116 -0.137205
-0.517664 -0.511897 -0.142794
-0.533752 -0.398031 -0.142903
-0.538808 -0.39274 -0.135481
-1.0398 -0.711154 0.011148
-1.01288 -0.43313 -0.00569134
-1.00448 -0.560516 -0.00787022
-0.972855 -0.674879 -0.0200475
-1.01774 -0.528018 0.0123992
-1.00331 -0.411714 0.0240488
-1.05211 -0.649287 0.0177681
-0.967775 -0.684447 0.00511188
-0.896875 -0.425897 -0.019811
0.0862771 -0.70716 -0.0837186
0.269453 -0.744598 -0.0319819
0.1405 -0.78042 -0.051661
0.142176 -0.726095 -0.0897344
0.320126 -0.758813 -0.077037
0.130209 -0.715231 -0.0866957
0.273373 -0.769902 -0.0637992
0.260594 -0.766462 -0.057383
-0.417944 -0.770847 -0.0742587
-0.432664 -0.768387 -0.0692529
0.617834 -0.852922 -0.0309857
0.627669 -0.932373 -0.0357767
0.59801 -0.919041 -0.0317659
0.672224 -0.90094 -0.0278862
0.442147 -0.924819 -0.0276957
0.407853 -0.918144 -0.0236012
-2.93018 -4.52528 0.236815
-2.90789 4.60043 0.226774
-1.1892 -4.59156 0.662968
-0.771516 -2.81062 -0.0463916
-1.04567 2.86828 0.0673497
-0.74194 4.74696 0.269289
-4.73248 -2.7258 0.22279
-4.71928 -1.16227 0.138074
-2.74567 -0.878391 -0.0756806
3  25 24 18
3  1490 1523 21
3  1523 462 747
3  35 30 15
3  2 4 0
3  5 4 2
3  5 6 4
3  5 2 1
3  6 0 4
3  1496 200 201
3  25 2 24
3  34 29 33
3  141 48 1343
3  48 1348 1343
3  13 12 10
3  38 37 13
3  33 37 38
3  38 13 33
3  3 13 10
3  3 5 13
3  5 1 13
3  14 17 9
3  9 15 14
3  14 15 17
3  1357 656 987
3  13 29 34
3  34 33 13
3  264 88 265
3  11 10 37
3  9 10 11
3  11 37 9
3  16 9 37
3  35 31 30
3  15 31 35
3  1129 627 1518
3  520 521 837
3  975 521 520
3  37 10 12
3  37 12 13
3  24 2 22
3  1519 18 1133
3  1519 1133 480
3  22 2 0
3  30 27 15
3  1518 21 7
3  1518 27 1129
3  23 1522 1521
3  474 1505 1503
3  32 8 19
3  30 20 27
3  8 33 28
3  32 33 8
3  23 7 1523
3  1523 1490 1496
3  797 358 490
3  490 487 797
3  27 1518 26
3  27 26 15
3  15 26 1518
3  809 223 227
3  64 65 219
3  23 1521 0
3  0 1515 23
3  33 29 28
3  31 20 30
3  683 687 1386
3  61 222 64
3  979 983 1340
3  1347 983 979
3  1347 1340 983
3  972 1344 1340
3  36 32 31
3  15 32 36
3  36 31 15
3  15 9 16
3  16 37 15
3  32 37 33
3  37 32 15
3  50 56 169
3  105 111 31
3  496 218 59
3  215 495 219
3  1236 1379 533
3  379 380 1379
3  175 232 75
3  1184 1333 1339
3  164 166 838
3  91 166 164
3  376 846 850
3  67 94 215
3  215 66 67
3  62 69 1350
3  59 57 150
3  371 176 177
3  1176 817 1171
3  216 1149 493
3  1118 945 1302
3  896 899 1252
3  532 384 383
3  81 32 82
3  81 82 77
3  77 82 32
3  88 95 97
3  51 145 497
3  865 100 108
3  1213 100 865
3  1182 999 1370
3  65 144 147
3  147 144 222
3  1380 850 1006
3  1380 1006 674
3  68 226 149
3  87 84 86
3  854 536 1207
3  869 835 1033
3  1294 940 607
3  1294 610 940
3  1294 607 610
3  815 235 371
3  815 371 70
3  513 81 80
3  516 81 513
3  699 1034 1408
3  57 482 60
3  507 390 75
3  1450 1070 317
3  389 386 236
3  156 389 236
3  810 61 503
3  275 302 406
3  406 302 276
3  217 800 1146
3  947 208 948
3  154 506 1150
3  1014 1150 506
3  356 358 797
3  356 637 358
3  756 1065 336
3  67 171 224
3  67 224 168
3  276 431 430
3  1164 686 1019
3  69 145 149
3  1062 581 1060
3  1030 1028 1402
3  383 384 380
3  67 168 63
3  1133 481 480
3  148 53 152
3  147 222 66
3  1156 1015 1381
3  78 81 77
3  806 803 215
3  495 215 803
3  824 518 820
3  886 550 552
3  550 886 379
3  825 794 517
3  821 794 825
3  472 621 477
3  226 502 149
3  151 149 502
3  237 232 233
3  234 232 237
3  535 534 1199
3  534 535 533
3  883 1238 884
3  299 297 300
3  300 297 105
3  1324 1176 1180
3  79 32 19
3  389 390 385
3  1106 766 765
3  154 1150 1156
3  1002 1375 1374
3  66 222 171
3  1152 1351 1350
3  1355 396 1024
3  77 32 79
3  967 631 634
3  102 1217 538
3  1217 107 538
3  83 247 1003
3  1003 1341 83
3  13 1520 29
3  505 1156 231
3  68 228 226
3  60 228 68
3  233 70 74
3  66 171 67
3  233 232 72
3  63 94 67
3  54 56 50
3  54 173 56
3  166 84 252
3  87 85 252
3  1186 666 524
3  170 91 165
3  97 98 88
3  88 98 99
3  219 61 64
3  394 1391 1389
3  280 877 419
3  76 75 390
3  76 390 73
3  861 865 1212
3  167 250 55
3  55 94 167
3  1219 1209 858
3  245 77 238
3  815 70 175
3  163 165 91
3  163 91 90
3  513 80 515
3  851 533 535
3  1145 806 494
3  222 144 64
3  65 64 144
3  389 71 390
3  390 71 73
3  1133 223 813
3  1240 883 553
3  128 615 337
3  222 501 224
3  222 224 171
3  230 685 1162
3  1015 685 230
3  1141 840 143
3  248 840 1141
3  244 241 239
3  300 105 537
3  812 220 225
3  861 1213 865
3  31 32 105
3  1073 1450 1230
3  124 763 606
3  617 345 766
3  845 846 382
3  446 1088 449
3  1462 1088 446
3  310 308 432
3  296 921 600
3  181 693 697
3  91 84 166
3  243 240 79
3  1272 323 324
3  902 1442 1440
3  105 539 272
3  436 912 315
3  436 1068 912
3  606 337 938
3  269 1209 1215
3  77 79 238
3  937 339 612
3  165 169 174
3  223 226 228
3  256 252 85
3  256 85 86
3  174 56 173
3  174 169 56
3  54 170 173
3  173 170 174
3  63 168 224
3  606 938 344
3  1180 827 1178
3  1052 559 1049
3  717 282 281
3  52 1376 55
3  275 576 403
3  1208 1206 854
3  243 824 820
3  119 318 1452
3  1452 910 119
3  548 287 547
3  456 455 304
3  422 417 251
3  315 321 313
3  419 877 878
3  678 1009 262
3  1146 1143 217
3  419 291 280
3  74 392 387
3  591 313 321
3  136 366 650
3  643 645 363
3  405 279 278
3  967 634 963
3  1152 503 216
3  1406 1408 1035
3  740 119 1074
3  482 480 210
3  60 210 480
3  147 66 65
3  1167 239 818
3  383 379 845
3  69 149 151
3  60 480 228
3  372 159 18
3  68 149 60
3  149 57 60
3  62 146 1351
3  166 252 838
3  150 57 152
3  175 235 815
3  1017 1156 1381
3  156 73 71
3  76 73 155
3  155 73 156
3  1018 510 511
3  1499 120 335
3  190 727 721
3  539 32 538
3  1361 995 994
3  720 1057 189
3  720 189 185
3  131 477 209
3  24 694 1023
3  689 397 24
3  848 842 224
3  1019 686 504
3  514 77 244
3  273 866 274
3  861 858 1209
3  72 232 175
3  0 1521 1522
3  172 91 170
3  84 91 172
3  382 383 845
3  174 170 165
3  245 244 77
3  960 21 956
3  960 1321 21
3  1158 223 1159
3  548 546 287
3  190 186 185
3  678 1007 1009
3  385 390 507
3  232 507 75
3  51 58 145
3  487 485 797
3  353 133 132
3  916 915 742
3  371 235 512
3  512 791 371
3  74 177 392
3  810 225 220
3  190 185 192
3  1056 197 187
3  192 185 424
3  430 431 117
3  76 231 75
3  75 231 175
3  1051 559 1052
3  1341 49 370
3  1221 699 1223
3  175 231 235
3  76 155 231
3  526 669 525
3  1456 1455 1077
3  1272 1455 1456
3  723 721 727
3  1101 1100 1290
3  1113 203 751
3  913 1272 1456
3  720 186 852
3  1355 1024 1353
3  455 456 454
3  426 450 184
3  1161 1134 790
3  965 355 635
3  357 635 355
3  957 351 959
3  959 349 957
3  1513 1511 1115
3  440 591 321
3  116 566 112
3  28 353 19
3  421 1229 878
3  268 1383 681
3  127 763 124
3  337 611 126
3  337 615 611
3  796 486 488
3  86 84 256
3  615 1489 1488
3  70 177 74
3  248 1342 840
3  483 210 60
3  1520 1519 28
3  1336 969 652
3  1017 1150 1384
3  422 251 249
3  249 251 417
3  1350 1351 146
3  1373 1374 997
3  151 809 1350
3  653 651 368
3  653 368 984
3  392 177 176
3  659 159 372
3  363 361 974
3  806 1148 494
3  1350 146 62
3  1189 524 1375
3  225 227 223
3  1196 376 535
3  1196 377 376
3  269 867 1209
3  392 176 178
3  240 238 79
3  490 358 357
3  211 354 633
3  1336 365 972
3  161 521 977
3  823 818 239
3  823 239 241
3  87 86 85
3  87 252 84
3  104 102 538
3  537 105 272
3  322 737 909
3  843 381 1195
3  280 878 877
3  421 878 280
3  845 844 1200
3  764 760 761
3  401 695 691
3  1397 695 401
3  265 88 250
3  265 250 264
3  115 296 116
3  297 111 105
3  134 1347 979
3  1262 903 1261
3  376 677 847
3  1197 1417 845
3  845 1417 1238
3  311 308 310
3  83 528 247
3  748 1464 449
3  748 449 1088
3  191 450 426
3  1409 1037 1039
3  354 211 1140
3  706 281 282
3  718 716 295
3  937 608 339
3  292 109 280
3  432 308 304
3  1235 420 292
3  292 420 109
3  297 31 111
3  1072 1273 316
3  1019 1018 511
3  300 537 866
3  116 112 115
3  310 309 311
3  311 309 308
3  659 658 1395
3  276 580 406
3  1427 394 1389
3  1289 609 125
3  297 301 31
3  986 396 988
3  886 552 888
3  944 616 345
3  118 743 1080
3  715 712 553
3  344 1096 438
3  344 938 1096
3  1096 342 934
3  1452 1070 1450
3  304 455 336
3  482 210 483
3  483 60 482
3  1101 1099 1100
3  308 333 304
3  1311 348 1319
3  1320 351 957
3  732 440 583
3  732 583 322
3  442 196 752
3  1083 746 446
3  1095 757 1097
3  1479 342 460
3  308 321 333
3  304 333 321
3  742 915 324
3  747 1084 1082
3  916 917 739
3  428 1057 1424
3  424 423 192
3  184 192 423
3  1084 752 1086
3  1227 879 1411
3  79 793 821
3  1114 204 206
3  206 204 465
3  43 363 645
3  490 488 486
3  360 645 643
3  150 496 59
3  178 176 371
3  153 149 145
3  383 1199 1194
3  382 1199 383
3  481 223 480
3  647 213 980
3  43 361 363
3  363 974 646
3  118 1080 1458
3  823 241 244
3  884 555 553
3  493 1149 1144
3  847 677 675
3  377 847 675
3  232 1018 1019
3  1009 1007 1380
3  156 71 389
3  402 387 392
3  1264 1263 1060
3  179 180 395
3  885 1044 294
3  178 402 392
3  1026 402 1352
3  585 911 320
3  1048 556 1239
3  414 280 408
3  883 884 553
3  1418 280 414
3  276 117 431
3  748 1088 1461
3  1085 748 1461
3  752 196 1089
3  909 737 439
3  717 1232 734
3  322 319 732
3  1057 1429 189
3  959 351 350
3  304 321 456
3  1285 122 1287
3  1282 754 451
3  490 486 211
3  304 336 1065
3  494 1148 1147
3  217 59 218
3  493 148 58
3  145 1351 1152
3  216 503 492
3  687 683 1155
3  655 18 991
3  232 234 511
3  232 511 510
3  156 505 231
3  693 1389 1391
3  156 231 155
3  1161 1136 1135
3  1137 1161 1135
3  1134 1135 790
3  1301 621 472
3  1301 1300 621
3  1510 1127 1511
3  1511 1127 785
3  904 1471 1470
3  704 703 1035
3  1406 1035 703
3  539 541 271
3  102 863 1217
3  104 863 102
3  539 860 272
3  271 108 100
3  541 108 271
3  40 41 1348
3  40 1348 984
3  895 297 299
3  413 710 1041
3  246 517 242
3  1176 827 1180
3  517 246 243
3  271 860 539
3  1342 980 649
3  861 864 1402
3  359 965 1329
3  1326 132 632
3  1184 833 1185
3  1184 836 833
3  823 244 245
3  633 354 1139
3  1139 1138 633
3  490 355 488
3  794 821 793
3  273 274 867
3  211 633 487
3  79 821 825
3  1139 518 1169
3  1023 697 693
3  1434 1260 1248
3  683 1386 1012
3  249 417 844
3  256 844 417
3  89 84 1376
3  1376 84 172
3  1375 1404 1189
3  705 1404 1375
3  169 165 90
3  286 285 706
3  409 285 286
3  409 706 285
3  105 32 539
3  531 846 847
3  531 847 377
3  545 874 873
3  161 977 670
3  873 871 279
3  873 279 700
3  680 262 266
3  1013 1017 500
3  1381 500 1017
3  1155 261 258
3  545 873 700
3  706 411 408
3  279 871 278
3  243 246 824
3  796 961 1330
3  357 962 965
3  515 80 1174
3  838 91 164
3  831 91 838
3  1005 253 407
3  838 254 257
3  1035 1405 704
3  702 699 705
3  522 526 665
3  665 526 1000
3  499 1155 258
3  1201 536 854
3  535 1199 382
3  852 692 394
3  216 145 1152
3  376 850 676
3  256 417 252
3  229 220 812
3  1132 1131 223
3  223 1131 1151
3  1197 845 379
3  180 397 689
3  865 862 1217
3  842 95 264
3  264 95 88
3  553 1044 885
3  376 847 846
3  681 852 268
3  681 692 852
3  268 852 536
3  1204 536 852
3  849 846 1196
3  382 846 849
3  849 1196 382
3  680 260 679
3  376 377 675
3  675 677 376
3  518 1139 1165
3  518 1165 820
3  266 267 260
3  574 572 902
3  574 902 578
3  1174 826 822
3  562 1247 301
3  1423 890 190
3  890 1423 1422
3  97 842 96
3  97 95 842
3  1052 1421 1051
3  922 1280 325
3  1279 325 1280
3  554 556 1236
3  859 863 103
3  679 1198 376
3  376 676 679
3  867 274 272
3  990 1390 986
3  880 547 287
3  1386 1382 1012
3  1012 1382 498
3  288 1046 290
3  1243 1234 889
3  989 657 656
3  1215 894 866
3  542 1215 866
3  1444 1257 1063
3  865 1217 1212
3  1212 1217 1218
3  1218 1217 863
3  838 252 254
3  841 162 840
3  213 162 841
3  841 840 213
3  404 405 277
3  275 403 545
3  545 544 275
3  43 645 360
3  284 1412 1225
3  275 404 277
3  275 544 404
3  404 279 405
3  1392 1025 1395
3  1041 710 708
3  720 185 186
3  1414 1231 422
3  710 711 708
3  667 1186 832
3  832 1182 667
3  1037 1413 409
3  1409 1413 1037
3  1409 409 1413
3  1228 875 409
3  409 302 1228
3  1228 302 875
3  876 882 1227
3  938 337 1102
3  625 955 1311
3  1311 1313 625
3  412 672 407
3  412 701 672
3  1418 714 1047
3  706 1232 281
3  704 1404 705
3  1057 720 1054
3  1327 359 1329
3  1233 875 880
3  711 709 1229
3  493 1144 50
3  50 804 493
3  636 1329 965
3  1241 885 291
3  878 881 1415
3  878 1415 1414
3  1414 1415 881
3  1041 1418 1040
3  602 1277 604
3  563 110 115
3  395 691 1024
3  1201 1206 1208
3  1020 1201 1208
3  1205 851 1202
3  1098 340 1480
3  1279 1280 328
3  1316 954 1493
3  1492 1493 954
3  1277 602 598
3  890 557 1244
3  186 190 726
3  586 1460 1454
3  723 186 722
3  1267 1265 307
3  570 577 578
3  565 566 116
3  448 1088 1462
3  568 300 114
3  704 705 699
3  777 1121 782
3  890 1234 1236
3  617 762 943
3  617 943 1297
3  1297 943 762
3  1443 1441 1442
3  1174 822 819
3  317 908 1072
3  1072 908 1273
3  699 703 704
3  699 1406 703
3  760 1483 1293
3  1278 1247 296
3  409 306 117
3  409 729 306
3  568 569 300
3  299 300 569
3  286 706 282
3  276 430 580
3  558 723 727
3  727 890 558
3  275 580 579
3  275 579 576
3  572 403 576
3  572 576 575
3  602 597 926
3  824 794 1169
3  824 517 794
3  721 726 190
3  721 722 726
3  725 425 722
3  725 726 425
3  209 347 946
3  621 946 347
3  471 1503 620
3  1026 1356 1396
3  1468 1284 927
3  929 1284 1468
3  123 1488 760
3  562 567 895
3  895 900 562
3  124 606 320
3  344 587 606
3  606 587 320
3  724 188 429
3  721 723 722
3  541 1216 108
3  1279 328 597
3  563 115 566
3  1277 919 327
3  275 406 580
3  1405 835 1189
3  1230 1268 905
3  580 581 579
3  477 347 209
3  477 621 347
3  1463 1461 1088
3  729 282 734
3  286 282 729
3  124 320 590
3  1130 789 1300
3  271 100 1213
3  912 1071 315
3  912 438 1071
3  1485 590 1295
3  1103 590 1485
3  937 610 338
3  937 338 608
3  1068 440 732
3  547 707 546
3  547 546 548
3  1029 698 1402
3  1219 698 1029
3  1219 1402 698
3  948 1305 947
3  852 558 890
3  852 723 558
3  1451 934 438
3  1071 438 934
3  303 277 405
3  121 1095 1306
3  322 583 314
3  314 583 439
3  116 899 561
3  899 565 561
3  116 561 565
3  735 433 439
3  430 306 1476
3  733 735 439
3  128 763 615
3  127 615 763
3  1236 556 550
3  856 1207 536
3  887 886 551
3  1354 1357 373
3  842 264 167
3  94 842 167
3  1191 1190 836
3  837 1190 1191
3  1459 1074 118
3  1070 1452 318
3  1396 1356 1357
3  128 606 763
3  337 606 128
3  1112 1496 1490
3  446 198 1462
3  915 1462 198
3  1421 1420 1051
3  591 440 1068
3  1074 1457 118
3  1453 441 1447
3  1453 736 441
3  912 1068 732
3  920 925 1276
3  737 1449 439
3  1272 1271 323
3  913 1271 1272
3  913 323 1271
3  1080 586 1454
3  1080 1454 1460
3  1082 449 1464
3  338 130 129
3  338 939 130
3  948 1304 1298
3  945 1298 1304
3  925 921 110
3  684 1203 853
3  905 1267 907
3  276 409 117
3  782 131 478
3  335 120 757
3  120 756 757
3  326 20 31
3  619 20 326
3  326 31 619
3  1471 581 580
3  1471 580 582
3  566 115 112
3  1124 1125 1128
3  20 479 786
3  709 1226 882
3  113 114 901
3  921 115 110
3  627 350 351
3  788 1123 1513
3  1513 1514 788
3  619 330 923
3  924 330 619
3  596 619 31
3  306 729 906
3  332 595 599
3  598 602 926
3  1092 451 605
3  334 454 755
3  455 454 334
3  922 595 329
3  924 329 595
3  339 1477 343
3  343 940 339
3  438 587 344
3  301 600 328
3  935 931 1285
3  755 935 1285
3  600 597 328
3  600 921 925
3  1126 786 479
3  1487 1104 1486
3  760 1104 1487
3  1253 899 296
3  564 301 1278
3  1278 296 600
3  564 1278 600
3  600 301 564
3  922 924 596
3  603 924 922
3  488 355 961
3  1442 1441 1061
3  1061 570 1442
3  126 611 123
3  126 123 1102
3  607 343 341
3  629 349 622
3  629 622 951
3  630 349 959
3  1061 1060 581
3  1061 581 1471
3  335 1306 1499
3  1499 1306 1307
3  607 341 935
3  459 457 1479
3  434 1069 733
3  318 1069 434
3  339 614 613
3  339 609 614
3  608 609 339
3  125 609 608
3  335 121 1306
3  1505 776 1120
3  1104 760 764
3  19 963 633
3  948 1298 1305
3  1001 664 1328
3  1368 664 1001
3  1499 1307 1116
3  952 1313 1508
3  124 590 766
3  617 766 590
3  1482 616 944
3  1482 944 762
3  319 438 912
3  322 438 319
3  745 749 747
3  447 1463 1466
3  1296 944 1297
3  1102 337 126
3  617 590 762
3  1323 1319 960
3  598 600 919
3  1283 928 929
3  605 928 1283
3  1283 929 605
3  20 1512 479
3  619 1512 20
3  1479 453 340
3  453 1481 340
3  1123 1124 1513
3  1511 1513 1124
3  130 761 129
3  129 761 936
3  781 209 478
3  781 478 131
3  131 209 781
3  629 951 624
3  624 349 629
3  306 906 907
3  907 906 905
3  1288 1291 624
3  624 1286 1288
3  315 313 591
3  315 591 1068
3  1311 1507 1508
3  779 782 478
3  1479 1480 342
3  470 776 774
3  20 786 783
3  25 18 1519
3  1318 625 125
3  767 773 461
3  1492 773 767
3  767 461 1492
3  955 1317 953
3  764 761 1104
3  1307 1306 949
3  949 1306 1308
3  625 1317 955
3  1317 625 1318
3  1311 1319 1323
3  1323 1320 1311
3  488 961 796
3  1075 744 914
3  478 209 946
3  321 342 935
3  487 633 963
3  19 1138 793
3  19 793 39
3  671 831 673
3  831 838 673
3  1375 1002 672
3  672 701 1375
3  525 669 999
3  642 44 638
3  354 1140 484
3  359 1327 799
3  1001 1333 1368
3  1333 1371 1368
3  405 278 1410
3  796 211 486
3  19 633 1138
3  259 1009 1380
3  636 356 1329
3  148 491 53
3  491 148 800
3  799 796 1330
3  795 631 966
3  964 966 631
3  797 485 795
3  795 966 797
3  646 1335 640
3  141 1343 140
3  830 833 836
3  975 369 364
3  654 365 136
3  972 365 654
3  654 136 972
3  976 366 136
3  133 976 969
3  640 970 646
3  970 362 646
3  647 1342 367
3  647 980 1342
3  976 639 969
3  42 363 646
3  364 369 638
3  638 44 142
3  395 393 691
3  651 653 650
3  850 846 845
3  1141 1346 1342
3  1141 1342 248
3  1160 688 682
3  44 653 984
3  43 973 971
3  971 644 43
3  211 1324 1178
3  1348 137 1343
3  491 212 1142
3  840 980 213
3  653 44 642
3  19 39 79
3  79 39 793
3  827 354 484
3  1151 1159 223
3  1151 1131 1159
3  214 495 494
3  1208 853 1203
3  536 1204 856
3  890 1204 852
3  716 713 295
3  643 363 42
3  134 643 42
3  1149 492 802
3  840 649 980
3  141 140 647
3  647 49 141
3  135 969 42
3  42 646 135
3  135 646 969
3  136 650 1345
3  1007 678 676
3  1007 676 1380
3  1257 1261 1063
3  643 45 360
3  134 45 643
3  976 648 978
3  1342 649 840
3  648 46 41
3  41 46 47
3  139 41 368
3  648 41 139
3  223 1154 225
3  659 18 159
3  661 18 659
3  968 797 966
3  356 797 968
3  964 968 966
3  631 968 964
3  1350 225 1152
3  503 1152 225
3  1065 437 432
3  142 49 977
3  638 142 977
3  977 364 638
3  655 988 657
3  986 988 655
3  658 659 372
3  809 151 223
3  101 859 103
3  1136 790 1135
3  70 371 177
3  660 158 160
3  375 160 18
3  662 160 375
3  1391 1397 401
3  1391 401 693
3  658 372 182
3  658 182 183
3  24 182 372
3  372 18 24
3  1024 396 986
3  394 1394 720
3  1394 1054 720
3  681 1016 1397
3  681 1397 692
3  399 1024 1398
3  399 1353 1024
3  1158 1159 1161
3  728 1063 1261
3  589 584 741
3  689 393 395
3  1017 1013 1150
3  1358 1031 992
3  660 160 662
3  374 660 662
3  661 662 375
3  375 18 661
3  663 996 828
3  882 1226 879
3  571 1063 577
3  577 573 571
3  1402 1028 1401
3  1402 1401 1399
3  242 517 824
3  242 824 246
3  999 997 1370
3  109 1230 408
3  408 280 109
3  1173 826 1167
3  1173 822 826
3  539 540 1216
3  538 540 539
3  538 1216 540
3  103 1166 519
3  1166 103 516
3  864 995 1402
3  1034 1031 868
3  715 295 1242
3  854 851 1208
3  522 668 526
3  678 680 676
3  545 700 544
3  1003 529 670
3  542 273 270
3  542 270 1215
3  668 669 526
3  1005 838 257
3  522 527 1373
3  700 279 404
3  1005 257 253
3  1358 1177 1031
3  865 108 862
3  109 420 1230
3  667 1182 666
3  666 1186 667
3  388 1026 399
3  388 690 1026
3  1376 1192 89
3  577 1063 578
3  1236 295 554
3  549 295 1236
3  844 99 1200
3  585 738 911
3  1077 911 738
3  1205 1208 851
3  1205 1202 1208
3  673 672 1002
3  1373 1002 1374
3  167 264 250
3  92 93 262
3  258 93 92
3  92 381 258
3  499 808 1155
3  808 221 1155
3  680 679 676
3  851 535 1202
3  1013 1155 1012
3  260 680 266
3  1158 1161 1137
3  262 1011 1010
3  183 696 1021
3  1162 685 507
3  381 674 1006
3  1008 674 381
3  92 1008 378
3  678 262 680
3  266 262 267
3  180 696 397
3  1056 187 1055
3  1211 272 860
3  528 529 1003
3  840 529 528
3  691 393 401
3  656 657 988
3  810 220 229
3  689 395 180
3  180 1021 696
3  1203 686 1164
3  388 400 691
3  990 991 157
3  655 657 18
3  708 1418 1041
3  505 156 1015
3  1157 1131 1134
3  1016 691 1397
3  1013 1012 1150
3  1361 1358 992
3  820 1165 818
3  24 398 689
3  74 387 690
3  690 387 402
3  74 690 237
3  694 1056 1058
3  424 185 423
3  1056 1426 1058
3  726 725 186
3  1097 1478 122
3  1478 758 122
3  1436 1432 1433
3  104 543 863
3  397 696 182
3  183 182 696
3  397 182 24
3  407 253 257
3  1033 1035 869
3  898 1252 1246
3  1332 641 642
3  642 638 1332
3  734 282 717
3  912 732 319
3  729 409 286
3  296 1247 1253
3  741 119 740
3  588 441 1273
3  588 1447 441
3  866 537 274
3  272 274 537
3  890 1236 1207
3  890 1207 1204
3  103 819 101
3  101 819 859
3  243 825 517
3  404 544 700
3  840 528 143
3  1036 880 875
3  875 1410 1036
3  1036 1410 880
3  1190 521 836
3  837 521 1190
3  702 705 701
3  1220 699 1221
3  699 1220 870
3  1220 1221 873
3  882 879 1227
3  1229 709 876
3  284 257 1412
3  254 1412 257
3  1045 1417 886
3  1197 886 1417
3  308 730 441
3  379 886 1197
3  888 552 887
3  887 552 550
3  410 1412 254
3  1025 662 1395
3  276 302 409
3  1066 1453 1067
3  1066 736 1453
3  450 197 447
3  1198 267 535
3  1198 260 267
3  893 1243 559
3  559 1243 1245
3  324 915 911
3  1272 324 911
3  1417 884 1238
3  554 295 556
3  556 295 713
3  416 1073 1230
3  118 119 743
3  715 718 295
3  260 1198 679
3  557 1422 1423
3  1414 1046 878
3  1046 1414 1419
3  93 1208 267
3  93 853 1208
3  232 1019 504
3  851 1207 855
3  851 855 1236
3  1236 855 1207
3  840 162 831
3  831 529 840
3  224 842 94
3  719 1049 891
3  1243 889 890
3  1044 715 294
3  1236 533 851
3  283 413 414
3  283 414 1038
3  83 143 528
3  429 1430 1425
3  1409 411 706
3  1409 408 411
3  560 893 559
3  1051 893 560
3  560 559 1051
3  288 419 1046
3  853 93 263
3  1405 1404 704
3  1248 1260 1254
3  725 722 186
3  699 1408 1406
3  756 930 1474
3  1055 187 197
3  1055 197 191
3  429 1425 724
3  899 1253 1246
3  1462 1467 448
3  776 473 1506
3  1258 573 1438
3  571 573 1258
3  1251 114 1210
3  113 1254 114
3  438 1096 1451
3  1451 1096 934
3  735 909 433
3  439 433 909
3  416 910 1073
3  1073 910 1452
3  913 1460 1275
3  445 443 1082
3  1082 443 449
3  443 445 449
3  589 741 740
3  320 1448 1069
3  908 318 434
3  434 733 908
3  435 736 321
3  435 321 308
3  308 736 435
3  308 441 736
3  583 440 1067
3  949 950 623
3  193 1461 1463
3  754 1282 604
3  190 890 727
3  739 1050 592
3  592 915 739
3  916 593 915
3  739 593 916
3  739 915 593
3  1244 557 891
3  1244 891 1243
3  1458 1078 118
3  551 886 888
3  551 888 887
3  594 742 324
3  324 323 594
3  1244 1243 890
3  1112 1490 1108
3  1108 1496 1112
3  1390 1024 986
3  1252 1254 897
3  1254 1252 898
3  1256 604 1276
3  1082 1084 750
3  123 759 1102
3  745 1084 749
3  747 749 1084
3  745 442 1084
3  468 467 1111
3  1496 467 468
3  1299 779 475
3  475 1300 1299
3  194 1086 199
3  1466 1463 1088
3  941 1483 1486
3  1119 1505 1120
3  1118 1500 945
3  922 329 603
3  603 329 924
3  445 750 1087
3  203 198 751
3  751 198 195
3  449 445 1087
3  768 1494 1111
3  1111 461 768
3  1504 1502 1298
3  779 1298 1502
3  746 195 198
3  446 746 198
3  754 604 451
3  775 620 1505
3  1501 777 1504
3  334 755 757
3  949 1308 950
3  334 757 756
3  1105 1487 1483
3  760 1487 1105
3  1105 1483 760
3  125 936 761
3  335 757 121
3  472 949 1301
3  1300 1301 949
3  942 616 1482
3  124 615 127
3  1106 615 124
3  940 612 339
3  758 932 122
3  920 327 925
3  1276 327 920
3  1306 1095 122
3  122 1095 1097
3  334 336 455
3  465 1498 203
3  464 1492 467
3  949 472 1307
3  954 1316 1498
3  203 1498 1316
3  730 1445 1268
3  1446 1445 730
3  1446 1268 1445
3  321 1067 440
3  202 1496 468
3  1493 1492 464
3  955 953 626
3  1090 1114 746
3  746 1083 1090
3  1066 1067 321
3  771 1492 1498
3  1498 1110 771
3  1322 1321 960
3  958 1321 1322
3  352 958 1322
3  769 462 469
3  462 769 745
3  1090 194 199
3  905 906 729
3  1266 1265 1267
3  589 1078 913
3  1458 913 1078
3  1061 1471 1469
3  625 1313 952
3  478 475 779
3  692 1391 394
3  1298 779 1305
3  503 225 810
3  1116 930 120
3  1133 813 481
3  131 1121 477
3  636 965 962
3  1334 1332 1335
3  351 21 1518
3  1307 472 1116
3  338 125 608
3  476 207 1122
3  207 208 1122
3  331 599 619
3  383 380 379
3  1121 131 782
3  1300 949 623
3  965 635 357
3  1473 121 757
3  1095 121 1473
3  1473 757 1095
3  924 595 330
3  1506 473 1302
3  1289 1288 609
3  614 609 1288
3  1506 780 778
3  802 214 805
3  1147 805 214
3  1506 1304 948
3  1130 623 622
3  1504 777 782
3  1502 1504 782
3  792 791 18
3  1523 7 21
3  1032 1401 1433
3  1288 1289 1310
3  1288 1310 1291
3  1310 1508 1507
3  1310 1507 624
3  230 1388 1015
3  1133 1132 223
3  1162 507 232
3  1027 393 689
3  1381 1015 1388
3  946 621 1300
3  382 1196 535
3  963 634 631
3  485 963 795
3  1132 18 791
3  791 1131 1132
3  1065 310 437
3  792 373 791
3  357 355 490
3  1161 1159 1157
3  1157 1134 1161
3  471 620 474
3  1308 1309 623
3  1129 783 1123
3  788 1129 1123
3  1126 783 786
3  1126 1125 783
3  624 951 622
3  624 622 1309
3  371 791 373
3  478 1300 475
3  1130 627 789
3  1122 780 476
3  1336 972 134
3  134 972 1347
3  489 484 1140
3  1140 211 489
3  104 516 103
3  859 1173 1167
3  211 1178 489
3  484 489 1178
3  650 653 1345
3  1184 1185 1371
3  1333 1184 1371
3  216 807 497
3  216 493 807
3  490 211 487
3  798 799 1327
3  217 218 800
3  800 212 491
3  212 218 496
3  218 212 800
3  217 1143 57
3  57 59 217
3  802 492 61
3  219 802 61
3  219 214 802
3  214 219 495
3  977 521 975
3  493 800 148
3  800 493 804
3  800 804 50
3  51 807 58
3  497 807 51
3  493 58 807
3  152 57 145
3  58 152 145
3  148 152 58
3  145 57 153
3  62 1351 145
3  145 69 62
3  29 1520 28
3  1149 805 1144
3  497 145 216
3  230 814 682
3  682 814 1160
3  1230 729 734
3  805 170 1144
3  50 1144 170
3  50 170 54
3  802 805 1149
3  1337 641 1332
3  991 986 655
3  986 991 990
3  842 848 850
3  216 492 1149
3  1174 1166 513
3  1166 1174 1168
3  1150 1154 1156
3  1150 1012 1154
3  96 1200 97
3  383 1194 532
3  222 229 501
3  501 229 812
3  1017 1014 154
3  154 1156 1017
3  890 889 1234
3  707 1226 546
3  824 1169 518
3  222 61 810
3  229 222 810
3  481 813 223
3  498 811 501
3  178 1352 402
3  1014 506 154
3  287 283 880
3  415 283 287
3  256 84 844
3  531 1196 846
3  531 377 1196
3  1156 508 231
3  1158 508 1156
3  844 84 99
3  507 685 385
3  1195 499 843
3  511 234 1019
3  103 543 104
3  103 863 543
3  1428 425 726
3  834 665 1000
3  1139 1169 794
3  1398 400 399
3  660 991 158
3  374 991 660
3  310 1065 305
3  310 305 309
3  309 305 1065
3  80 826 1174
3  1369 524 997
3  1375 524 1369
3  1369 997 1375
3  867 270 273
3  999 669 997
3  822 1173 819
3  1165 1167 818
3  79 825 243
3  820 240 243
3  245 240 820
3  238 240 245
3  1003 247 528
3  870 1034 699
3  1000 526 1182
3  80 1172 826
3  1325 1329 1328
3  798 1329 1325
3  798 1325 1328
3  1215 270 867
3  830 834 523
3  866 273 542
3  673 1004 671
3  245 820 818
3  245 818 823
3  103 519 819
3  515 1174 513
3  819 1173 859
3  1181 828 829
3  1181 829 1175
3  1358 1363 1177
3  1361 1363 1358
3  1404 1405 1189
3  527 521 1188
3  161 1188 521
3  978 139 976
3  368 976 139
3  138 139 978
3  1189 835 524
3  835 1186 524
3  801 55 1376
3  1148 55 801
3  673 838 1005
3  1004 670 671
3  673 1002 1004
3  671 670 831
3  831 670 529
3  1020 1208 1164
3  791 1134 1131
3  503 61 492
3  981 800 50
3  1350 69 151
3  160 158 18
3  991 18 158
3  213 90 831
3  213 831 162
3  169 90 213
3  50 169 213
3  90 91 831
3  1373 1004 1002
3  138 978 648
3  648 139 138
3  832 1186 868
3  57 1143 482
3  975 982 369
3  975 364 977
3  1412 1411 1226
3  1154 1158 1156
3  46 648 1146
3  1146 648 1143
3  1146 800 46
3  0 1522 22
3  90 165 163
3  1227 1411 1412
3  1038 414 408
3  709 882 876
3  1266 1267 905
3  905 1268 1266
3  553 712 1044
3  1514 1129 788
3  19 8 28
3  235 231 508
3  1350 809 227
3  1350 227 225
3  1154 812 225
3  1341 370 83
3  977 49 1341
3  1352 371 373
3  178 371 1352
3  43 360 1340
3  1340 1344 43
3  672 1005 407
3  672 673 1005
3  1332 1334 1337
3  1337 1334 644
3  1373 670 1004
3  1373 161 670
3  92 1010 1008
3  874 545 1224
3  407 257 1225
3  965 961 355
3  1330 961 965
3  1034 868 1407
3  360 45 979
3  367 49 647
3  141 49 48
3  48 49 839
3  839 142 48
3  839 49 142
3  1245 1243 891
3  1245 891 559
3  500 1155 1013
3  873 872 1220
3  1033 835 1405
3  297 567 562
3  297 895 567
3  1215 867 269
3  719 1421 1049
3  913 1275 323
3  1372 1370 666
3  1182 1370 1372
3  1372 666 1182
3  871 699 701
3  702 701 699
3  874 872 873
3  407 1225 707
3  412 407 707
3  1225 257 284
3  302 1410 875
3  1229 876 881
3  1229 881 878
3  1229 421 711
3  876 1231 1414
3  1414 881 876
3  892 1051 1234
3  410 1227 1412
3  1225 1412 1226
3  306 307 312
3  292 1237 1235
3  739 917 1051
3  1411 879 1226
3  1043 885 1241
3  342 315 934
3  294 715 1242
3  714 708 711
3  709 711 710
3  878 1046 419
3  409 875 1037
3  887 1045 886
3  549 1236 1234
3  1234 295 549
3  280 291 292
3  884 887 555
3  555 887 556
3  893 1051 892
3  1219 1029 113
3  113 1251 1219
3  1010 674 1008
3  1380 674 1010
3  252 1416 254
3  376 1198 535
3  893 1234 1243
3  892 1234 893
3  1046 1042 290
3  249 290 1042
3  1195 1006 850
3  1045 887 884
3  191 197 450
3  1253 895 299
3  1249 895 1253
3  533 1199 534
3  1043 293 1240
3  1276 563 1256
3  718 1048 1239
3  1239 716 718
3  556 713 1239
3  1239 713 716
3  249 844 290
3  1044 712 715
3  1072 316 317
3  317 316 730
3  1378 380 384
3  1377 380 1378
3  1378 384 1377
3  1235 295 1234
3  1043 1240 553
3  1048 715 555
3  899 896 1255
3  1076 1075 1079
3  419 288 291
3  1241 291 288
3  1248 1254 113
3  294 1242 295
3  294 1235 885
3  1164 1208 1203
3  300 866 894
3  1251 1210 1219
3  1433 1400 1436
3  1436 1400 1432
3  898 568 114
3  1257 1254 1260
3  283 1226 709
3  753 451 1092
3  1254 898 114
3  1246 568 898
3  1062 1060 1443
3  114 894 1215
3  1219 1210 1209
3  113 901 1251
3  604 1277 1276
3  1256 1257 451
3  300 894 114
3  325 1279 597
3  1248 1032 1250
3  872 870 1220
3  570 573 577
3  871 873 699
3  902 570 578
3  1062 1443 902
3  1062 902 576
3  1221 1223 873
3  1246 1253 299
3  1440 570 902
3  1300 623 1130
3  1299 780 1122
3  1252 897 1257
3  896 1252 1257
3  129 936 125
3  338 129 125
3  1450 317 730
3  610 612 940
3  125 1316 1317
3  942 345 616
3  123 938 759
3  474 620 775
3  1230 420 416
3  583 1453 731
3  583 1067 1453
3  1452 1450 1073
3  1479 1290 1100
3  460 1290 1479
3  1275 1076 1079
3  1447 731 1453
3  1456 738 318
3  586 1076 1460
3  1076 586 1080
3  453 933 1481
3  1293 933 453
3  1158 791 512
3  1071 934 315
3  909 735 1269
3  589 1074 1078
3  320 1069 738
3  320 738 585
3  757 755 1097
3  913 1456 589
3  1456 584 589
3  1472 1474 930
3  1093 1474 1472
3  1472 930 1093
3  1069 318 738
3  555 556 1048
3  1074 119 1457
3  1457 119 118
3  742 917 916
3  1077 738 1456
3  1429 188 724
3  1315 1508 1310
3  915 198 911
3  1081 1075 1076
3  744 1075 1081
3  1459 1078 1074
3  572 1059 1434
3  1434 1059 1435
3  1505 1119 1299
3  1438 1439 1258
3  918 602 601
3  918 604 599
3  601 604 918
3  595 602 918
3  595 918 599
3  328 1280 922
3  327 919 600
3  926 597 600
3  301 596 31
3  301 328 596
3  596 328 922
3  1278 301 1247
3  926 600 598
3  921 296 115
3  595 922 325
3  619 596 924
3  331 619 923
3  330 595 923
3  923 595 332
3  925 327 600
3  332 599 923
3  923 599 331
3  1257 605 451
3  612 610 937
3  779 1299 1122
3  587 438 1269
3  1500 1505 945
3  1118 470 774
3  120 930 756
3  476 780 1506
3  1506 207 476
3  339 613 1477
3  1401 1400 1433
3  624 1291 1310
3  195 746 1114
3  1234 416 1270
3  1234 1270 1235
3  416 420 289
3  416 289 1270
3  456 321 935
3  935 454 456
3  755 454 935
3  457 453 1479
3  935 342 1292
3  1480 1292 342
3  958 628 626
3  352 628 958
3  202 200 1496
3  461 1111 1492
3  1285 1287 758
3  1311 1508 1313
3  309 1476 306
3  314 1449 737
3  314 439 1449
3  1085 1461 193
3  1230 905 729
3  1232 1230 734
3  1128 1127 784
3  1514 1115 1299
3  1514 1513 1115
3  474 1503 471
3  753 1092 929
3  930 1298 1093
3  1503 928 1470
3  306 312 309
3  306 907 1267
3  315 1068 436
3  117 306 430
3  1296 762 944
3  628 348 1311
3  623 950 1308
3  622 349 1130
3  1130 349 627
3  1309 1308 122
3  122 1285 1309
3  125 1314 1289
3  952 1314 125
3  340 1481 1480
3  1292 607 935
3  460 342 458
3  460 1096 1290
3  458 1096 460
3  340 1098 1479
3  203 1316 1295
3  125 625 952
3  798 1324 799
3  211 799 1324
3  1312 349 624
3  357 636 962
3  357 358 636
3  358 637 636
3  637 356 636
3  487 963 485
3  795 963 631
3  359 799 1330
3  1330 965 359
3  19 967 963
3  353 967 19
3  1363 1359 1177
3  652 365 1336
3  631 632 968
3  632 132 968
3  968 132 133
3  859 1175 1365
3  134 1331 1336
3  1339 369 982
3  664 1179 1177
3  1368 1179 664
3  1368 1177 1179
3  28 976 133
3  28 133 353
3  969 362 970
3  83 370 1342
3  1342 370 49
3  395 1021 179
3  1021 395 1395
3  1324 1180 1178
3  1338 642 973
3  973 642 1337
3  42 1331 134
3  971 1337 644
3  46 1343 137
3  46 137 1348
3  969 646 362
3  83 1342 1346
3  1335 1332 640
3  83 1346 1141
3  1141 143 83
3  638 970 640
3  976 136 652
3  652 639 976
3  652 969 639
3  652 136 365
3  976 651 366
3  368 651 976
3  650 366 651
3  1345 1338 973
3  1345 973 43
3  44 984 142
3  974 361 1335
3  644 1335 361
3  644 361 43
3  646 974 1335
3  223 1349 502
3  223 502 226
3  670 1341 1003
3  977 1341 670
3  981 1343 46
3  46 800 981
3  1348 142 984
3  134 979 45
3  42 969 1331
3  1331 969 1336
3  1349 151 502
3  1022 157 1025
3  1025 157 374
3  1137 791 1158
3  232 510 1018
3  693 689 1023
3  374 157 991
3  1023 689 398
3  1023 398 24
3  661 659 662
3  690 402 1026
3  1011 1009 259
3  262 1009 1011
3  1065 432 304
3  1361 1359 1363
3  829 828 996
3  1167 1175 859
3  862 1216 106
3  862 106 107
3  107 106 1216
3  862 108 1216
3  579 1062 576
3  513 1166 516
3  1175 829 1362
3  1264 1060 1061
3  136 1345 972
3  1171 1167 1165
3  1370 997 666
3  378 381 92
3  869 1186 835
3  92 262 1010
3  378 1008 381
3  834 522 665
3  522 834 527
3  1375 701 705
3  998 523 834
3  874 1224 872
3  836 521 830
3  1287 932 758
3  1287 122 932
3  1031 995 992
3  1030 995 1031
3  1030 403 1028
3  403 1030 1031
3  1039 1233 1409
3  1233 1038 1409
3  1183 1182 1031
3  1337 642 641
3  48 142 1348
3  973 1337 971
3  1031 1177 1368
3  1031 1368 1366
3  1182 1183 1000
3  1334 1335 644
3  640 1332 638
3  1186 869 868
3  631 1326 632
3  389 385 386
3  153 57 149
3  498 812 1154
3  1154 1012 498
3  1385 504 686
3  1015 156 236
3  236 386 1015
3  684 686 1203
3  1385 686 684
3  1015 386 385
3  1163 233 175
3  72 175 233
3  1395 658 183
3  175 70 1163
3  1163 70 233
3  1357 989 656
3  989 1357 1354
3  179 1021 180
3  854 1207 851
3  1408 1407 868
3  1387 1160 814
3  271 1211 860
3  271 1213 1211
3  689 693 1027
3  693 401 1027
3  1027 401 393
3  985 157 1022
3  1022 990 985
3  985 990 157
3  1354 792 18
3  1201 854 1206
3  539 1216 541
3  114 1251 901
3  186 723 852
3  1058 1427 1389
3  1384 1150 1014
3  990 1392 1390
3  1397 1391 692
3  374 662 1025
3  1397 691 695
3  1033 1405 1035
3  899 1255 565
3  869 1408 868
3  1224 545 403
3  872 1224 870
3  523 833 830
3  1178 827 484
3  836 1184 1191
3  432 437 310
3  130 1486 1104
3  281 1232 717
3  1409 1038 408
3  1232 706 408
3  1232 408 1230
3  1222 403 1031
3  1045 884 1417
3  550 556 887
3  1418 708 714
3  718 715 1048
3  1424 1427 1058
3  1049 1421 1052
3  288 293 1043
3  1043 1241 288
3  885 1235 1237
3  559 891 1049
3  917 914 1051
3  742 914 917
3  1055 429 188
3  1043 553 885
3  845 1200 850
3  381 1006 1195
3  843 499 258
3  254 1416 410
3  885 1237 292
3  1416 1231 1227
3  417 1231 1416
3  252 417 1416
3  422 1231 417
3  292 291 885
3  1382 811 498
3  553 555 715
3  1421 1050 1420
3  421 1047 714
3  1419 1414 1042
3  418 1042 1414
3  1419 1042 1046
3  1233 1037 875
3  743 1051 914
3  914 744 743
3  662 659 1395
3  426 1430 429
3  429 1055 426
3  191 426 1055
3  447 1467 1462
3  1057 1053 1429
3  1427 1394 394
3  1394 1427 1054
3  1425 423 189
3  426 184 1425
3  428 1053 1057
3  1430 426 1425
3  1390 1395 395
3  1392 1395 1390
3  1026 1396 396
3  396 1396 988
3  1424 1054 1427
3  409 1409 706
3  994 995 864
3  1402 995 1030
3  1360 1359 1175
3  526 525 1182
3  1034 1407 1408
3  1212 1218 1365
3  1212 1365 994
3  520 837 1191
3  520 1191 975
3  1360 1177 1359
3  1437 578 728
3  1210 114 1215
3  1215 1209 1210
3  277 1410 302
3  302 275 277
3  1399 1032 1402
3  1402 1032 1029
3  1032 1399 1401
3  1263 1061 1441
3  827 1176 1165
3  1176 1171 1165
3  579 581 1062
3  1224 403 1222
3  1222 1031 1034
3  873 1223 699
3  1222 1034 870
3  1250 1433 1248
3  572 1401 403
3  572 1432 1401
3  572 1433 1432
3  785 1127 1128
3  785 1128 787
3  1285 758 755
3  1478 755 758
3  605 929 1092
3  1401 1403 1400
3  896 1257 1256
3  589 740 1074
3  741 318 119
3  193 1463 197
3  197 1463 447
3  118 1078 1459
3  1460 1076 1275
3  1079 1075 914
3  1081 743 744
3  1081 1076 1080
3  1081 1080 743
3  1501 1504 1117
3  1082 750 445
3  193 748 1085
3  194 1090 446
3  1083 446 1090
3  1145 803 806
3  1145 495 803
3  472 477 1121
3  472 1121 1501
3  451 1091 1282
3  927 1091 451
3  927 1282 1091
3  1132 1133 18
3  930 1116 1504
3  1084 442 752
3  462 745 747
3  1102 759 938
3  194 446 1087
3  1087 1086 194
3  1050 1421 1462
3  199 1086 1089
3  1087 446 449
3  1087 750 1084
3  1084 1086 1087
3  747 1082 1464
3  1088 1467 1466
3  1317 1316 953
3  468 1111 202
3  467 1496 463
3  1108 463 1496
3  309 1065 1476
3  1433 1434 1248
3  1433 572 1434
3  599 1282 1284
3  1284 1282 927
3  599 604 1282
3  783 1125 1124
3  1262 1261 1257
3  1093 1471 1475
3  306 1267 307
3  1266 1268 1265
3  309 312 307
3  1475 582 580
3  1471 582 1475
3  1094 1475 580
3  1474 1475 1094
3  1096 938 1099
3  1099 938 453
3  1099 453 457
3  1100 1099 459
3  459 1099 457
3  130 1104 761
3  1176 1324 993
3  1495 466 1491
3  1297 762 1296
3  1506 948 207
3  1506 778 1120
3  1120 778 780
3  1500 1118 1505
3  1505 1118 776
3  617 1297 345
3  345 1297 346
3  1297 944 346
3  944 345 346
3  1486 338 610
3  1486 939 338
3  765 1489 1106
3  1111 462 201
3  1494 462 1111
3  760 766 345
3  1107 766 760
3  1489 615 1106
3  765 766 1489
3  766 1106 124
3  760 1489 1107
3  1489 760 1488
3  1108 1497 1493
3  1317 1318 125
3  592 1050 1462
3  1462 915 592
3  1493 772 463
3  1110 768 773
3  1110 773 771
3  1110 770 1109
3  1109 462 1494
3  1494 768 1110
3  1111 201 202
3  202 201 200
3  465 204 1498
3  199 204 1114
3  199 1498 204
3  954 1498 1492
3  199 1114 1090
3  1491 466 1110
3  1490 1497 1108
3  1462 1421 444
3  1421 1423 444
3  447 1462 444
3  450 447 444
3  1468 927 451
3  448 1467 1088
3  1154 223 1158
3  203 1114 206
3  206 465 203
3  1114 203 195
3  195 203 1113
3  1109 1494 1110
3  782 779 1502
3  928 1281 1509
3  947 1122 208
3  1305 1122 947
3  774 776 1118
3  472 1501 1116
3  1312 1507 1311
3  1311 349 1312
3  1305 779 1122
3  1505 1303 945
3  1298 945 1303
3  624 1507 1312
3  789 1299 1300
3  945 1304 1302
3  1303 1503 1470
3  478 946 1300
3  1299 1119 1120
3  1120 780 1299
3  1121 777 1501
3  1299 789 1514
3  20 783 27
3  783 1124 1123
3  1124 1128 784
3  1128 1125 1126
3  1128 1126 479
3  787 1128 479
3  470 1302 776
3  1118 1302 470
3  776 1302 473
3  1516 2 25
3  1519 2 1516
3  1516 25 1519
3  789 627 1129
3  1503 1505 1115
3  1129 27 783
3  13 2 1520
3  13 1 2
3  228 480 223
3  1153 501 811
3  1352 1357 1356
3  691 400 1398
3  512 235 508
3  508 1158 512
3  687 221 1382
3  1382 221 808
3  1135 1134 791
3  232 816 1162
3  230 1162 816
3  1137 1135 791
3  415 1226 283
3  793 1139 794
3  793 1138 1139
3  538 516 104
3  538 32 516
3  516 32 81
3  150 53 496
3  1142 496 53
3  152 53 150
3  1142 53 491
3  212 496 1142
3  806 215 1148
3  215 94 55
3  55 1148 215
3  494 495 1145
3  494 1147 214
3  66 219 65
3  66 215 219
3  805 1147 1148
3  1148 801 805
3  1379 1377 384
3  1379 384 532
3  1143 480 482
3  1343 213 140
3  981 213 1343
3  140 213 647
3  981 50 213
3  1159 1131 1157
3  1153 848 224
3  63 224 94
3  224 501 1153
3  1153 499 848
3  93 258 261
3  93 261 530
3  1155 530 261
3  93 530 500
3  500 530 1155
3  843 258 381
3  1012 1155 683
3  498 501 812
3  687 1155 221
3  1161 790 1136
3  1156 505 1015
3  1520 2 1519
3  1353 396 1355
3  1026 1352 1356
3  1398 1024 691
3  684 853 1160
3  853 263 1160
3  1160 263 688
3  688 263 93
3  1384 1014 1017
3  1386 687 1382
3  1019 234 1164
3  237 1164 234
3  819 519 1168
3  1168 519 1166
3  1139 354 1165
3  1165 354 827
3  1168 1174 819
3  817 1176 1170
3  1172 81 78
3  78 514 1172
3  80 81 1172
3  1167 826 239
3  1172 239 826
3  244 239 1172
3  244 1172 514
3  78 77 514
3  707 1225 1226
3  1224 1222 870
3  1360 1175 664
3  1175 1362 664
3  1252 899 1246
3  1171 1175 1167
3  817 1175 1171
3  817 1170 1175
3  1361 1175 1359
3  1170 1176 1181
3  1170 1181 1175
3  1371 1367 1368
3  1366 1367 1371
3  1366 1368 1367
3  828 1181 993
3  1176 993 1181
3  828 993 663
3  367 1342 49
3  992 995 1361
3  47 46 1348
3  1183 1031 1366
3  1187 527 834
3  832 868 1182
3  1182 868 1031
3  834 521 1187
3  834 830 521
3  1187 521 527
3  55 250 52
3  52 250 1192
3  1379 1236 550
3  1192 88 89
3  89 88 84
3  255 88 1192
3  1380 676 850
3  255 1192 250
3  250 88 255
3  500 1193 93
3  688 93 1193
3  1387 1385 684
3  684 1160 1387
3  1202 535 267
3  267 1208 1202
3  96 842 850
3  96 850 1200
3  850 848 1195
3  848 499 1195
3  99 98 1200
3  99 84 88
3  97 1200 98
3  532 1194 1199
3  1383 1016 681
3  267 262 93
3  844 845 1238
3  856 1204 1207
3  288 1240 293
3  288 290 1240
3  1214 994 864
3  287 1226 415
3  287 546 1226
3  710 283 709
3  451 604 1256
3  1209 1213 861
3  1209 867 1213
3  272 1213 867
3  272 1211 1213
3  1214 1212 994
3  864 1212 1214
3  538 107 1216
3  1217 862 107
3  1218 863 859
3  1260 1262 1257
3  1432 1403 1401
3  574 578 1437
3  40 984 368
3  1277 327 1276
3  368 41 40
3  413 283 710
3  1233 880 283
3  1233 283 1038
3  1039 1037 1233
3  418 1414 422
3  380 1377 1379
3  743 119 1234
3  743 1234 1051
3  883 290 844
3  844 1238 883
3  294 295 1235
3  883 1240 290
3  1227 410 1416
3  604 601 602
3  890 1422 557
3  891 1423 719
3  891 557 1423
3  900 895 1249
3  1246 569 568
3  1246 299 569
3  1257 897 1254
3  113 1029 1032
3  1032 1248 113
3  896 298 1255
3  728 1261 903
3  598 919 1277
3  1249 562 900
3  576 902 575
3  1249 1253 562
3  1253 1247 562
3  116 296 899
3  1061 1263 1264
3  1258 1439 1259
3  1258 1259 571
3  1434 1435 1262
3  1435 1059 1262
3  1292 610 607
3  1256 298 896
3  1256 1255 298
3  565 1255 1256
3  565 1256 566
3  1256 563 566
3  933 610 1292
3  610 933 452
3  1503 1281 928
3  1446 309 307
3  343 1477 341
3  731 439 583
3  1230 730 1268
3  1268 307 1265
3  587 1448 320
3  1069 1269 735
3  735 733 1069
3  1274 742 594
3  1269 438 909
3  322 909 438
3  314 737 322
3  318 317 1070
3  908 317 318
3  1270 289 1235
3  1235 289 420
3  1077 1272 911
3  1288 1286 931
3  624 931 1286
3  1273 441 316
3  730 316 441
3  1269 1069 1448
3  1273 731 588
3  908 439 1273
3  1273 439 731
3  733 439 908
3  587 1269 1448
3  925 110 1276
3  1276 110 563
3  1079 914 1275
3  1275 914 742
3  1274 1275 742
3  594 1275 1274
3  594 323 1275
3  301 297 562
3  325 602 595
3  325 597 602
3  1093 1470 1471
3  1503 1509 1281
3  1511 1509 1503
3  1124 784 1511
3  1504 1298 930
3  1510 784 1127
3  1511 1503 1115
3  1511 784 1510
3  599 1284 1512
3  1509 1512 1284
3  929 928 1509
3  1284 929 1509
3  474 775 1505
3  1310 1289 1314
3  122 1308 1306
3  1288 931 935
3  458 342 1096
3  1099 1290 1096
3  1478 1097 755
3  321 315 342
3  1290 1099 1101
3  1481 1292 1480
3  1481 933 1292
3  343 607 940
3  452 1293 610
3  911 1295 320
3  320 1295 590
3  123 760 1293
3  1293 941 610
3  452 933 1293
3  453 938 1293
3  1293 938 123
3  956 351 960
3  960 351 1323
3  610 941 1486
3  911 198 1295
3  198 203 1295
3  1323 351 1320
3  939 1486 130
3  1129 1514 789
3  948 208 207
3  1309 622 623
3  931 1309 1285
3  624 1309 931
3  1315 1314 952
3  1315 1310 1314
3  631 967 1326
3  353 1326 967
3  664 993 1324
3  952 1508 1315
3  1320 957 349
3  1311 1320 349
3  211 796 799
3  1319 348 960
3  955 626 1311
3  1493 463 1108
3  1117 1504 1116
3  1117 1116 1501
3  1505 1299 1115
3  464 467 463
3  626 953 1490
3  761 1316 125
3  1295 1484 1485
3  1495 770 1110
3  444 184 450
3  1089 196 1495
3  464 772 1493
3  1316 1497 953
3  953 1497 1490
3  1316 1493 1497
3  994 1365 1361
3  1361 1365 1175
3  626 1321 958
3  1321 626 21
3  626 628 1311
3  1322 960 348
3  348 628 1322
3  1322 628 352
3  630 959 350
3  627 349 630
3  627 630 350
3  356 968 1329
3  1339 975 1191
3  1184 1339 1191
3  412 1410 701
3  353 132 1326
3  1328 664 1324
3  1345 1344 972
3  1344 1345 43
3  1339 982 975
3  798 1328 1324
3  1327 1329 798
3  1333 970 1339
3  1339 970 638
3  1333 1328 1329
3  1001 1328 1333
3  1333 1329 968
3  969 970 1333
3  969 1333 133
3  223 151 1349
3  972 1340 1347
3  1340 360 979
3  653 642 1345
3  1345 642 1338
3  997 524 666
3  522 1373 668
3  668 1373 669
3  47 1348 41
3  1333 968 133
3  638 369 1339
3  394 720 852
3  399 1026 1353
3  1353 1026 396
3  1393 509 237
3  989 1354 657
3  1354 18 657
3  1354 373 792
3  373 1357 1352
3  993 664 1362
3  993 1362 1364
3  664 1177 1360
3  861 1402 1219
3  1219 858 861
3  996 663 1364
3  1364 829 996
3  1364 663 993
3  1365 1218 859
3  1410 277 303
3  869 1035 1408
3  303 405 1410
3  1364 1362 829
3  861 1212 864
3  1182 525 999
3  1000 1183 1371
3  1371 834 1000
3  1371 833 523
3  1371 1185 833
3  998 1371 523
3  834 1371 998
3  1371 1183 1366
3  1374 1375 997
3  669 1373 997
3  1373 1188 161
3  1373 527 1188
3  805 1376 170
3  805 801 1376
3  1376 172 170
3  52 1192 1376
3  1379 550 379
3  1379 532 1199
3  533 1379 1199
3  1010 1011 1380
3  1011 259 1380
3  1055 1429 1056
3  1426 1056 1429
3  183 1021 1395
3  688 1193 1381
3  1381 1193 500
3  1382 808 499
3  1382 499 1153
3  1153 811 1382
3  1383 857 1201
3  1020 1383 1201
3  1016 1383 1020
3  536 1201 857
3  536 857 268
3  268 857 1383
3  1015 385 685
3  232 504 816
3  816 1385 1387
3  504 1385 816
3  814 230 816
3  1387 814 816
3  230 682 1388
3  1388 682 1381
3  682 688 1381
3  1389 697 694
3  694 1058 1389
3  697 1389 181
3  1425 184 423
3  428 1429 1053
3  181 1389 693
3  237 509 1164
3  74 237 233
3  1393 237 690
3  1393 690 388
3  1025 1392 1022
3  1392 990 1022
3  1020 391 1393
3  1020 1164 391
3  1393 391 509
3  1164 509 391
3  1016 1020 1393
3  1393 691 1016
3  691 1393 388
3  388 399 400
3  572 575 902
3  1396 987 988
3  656 988 987
3  1357 987 1396
3  1024 1390 395
3  1250 1032 1433
3  1440 1442 570
3  249 1042 418
3  1028 403 1401
3  876 1227 1231
3  1434 1262 1260
3  1432 1400 1403
3  418 422 249
3  707 1410 412
3  547 1410 707
3  1410 547 880
3  1410 871 701
3  1410 278 871
3  119 416 1234
3  119 910 416
3  421 714 711
3  280 1418 1047
3  280 1047 421
3  413 1418 414
3  413 1040 1418
3  1041 1040 413
3  1420 1050 739
3  1420 739 1051
3  1055 188 1429
3  929 1468 753
3  753 1468 451
3  190 192 1423
3  1471 904 1469
3  1469 904 1061
3  1429 427 1426
3  428 427 1429
3  719 1423 1421
3  184 1423 192
3  184 444 1423
3  1431 1424 1058
3  1058 428 1431
3  1431 428 1424
3  427 428 1058
3  1054 1424 1057
3  189 724 1425
3  694 697 1023
3  189 423 185
3  1428 726 722
3  722 425 1428
3  1058 1426 427
3  189 1429 724
3  1064 1259 1439
3  1442 902 1443
3  1093 1475 1474
3  1437 572 574
3  1437 1059 572
3  580 430 1476
3  1477 1288 935
3  1437 728 903
3  1437 903 1059
3  1262 1059 903
3  620 1503 1303
3  580 1476 1094
3  1094 1476 1474
3  1444 1438 1257
3  1093 1298 1470
3  1470 1298 1303
3  1438 605 1257
3  1061 904 573
3  573 570 1061
3  1263 1441 1060
3  1443 1060 1441
3  1477 613 614
3  614 1288 1477
3  1450 730 1230
3  1444 1439 1438
3  1439 1444 1064
3  1064 1444 1259
3  571 1259 1444
3  1444 1063 571
3  578 1063 728
3  341 1477 935
3  308 309 1446
3  308 1446 730
3  1268 1446 307
3  588 731 1447
3  321 736 1066
3  1482 590 1103
3  762 590 1482
3  1479 1100 459
3  1272 1077 1455
3  1456 318 741
3  1456 741 584
3  1080 913 1458
3  1080 1460 913
3  1490 21 626
3  1113 751 195
3  752 1089 1086
3  620 1303 1505
3  1466 1467 447
3  1056 694 24
3  1465 1056 24
3  1465 24 197
3  197 1056 1465
3  904 1438 573
3  605 1438 904
3  1120 776 1506
3  904 1470 605
3  928 605 1470
3  756 1476 1065
3  756 1474 1476
3  336 334 756
3  1479 1098 1480
3  1487 1486 1483
3  941 1293 1483
3  1107 1489 766
3  615 1488 123
3  123 611 615
3  1295 1316 1484
3  1485 1484 1316
3  761 1485 1316
3  760 1485 761
3  760 345 1485
3  1485 345 942
3  1485 942 1103
3  1482 1103 942
3  1495 205 199
3  199 1089 1495
3  1495 1110 466
3  120 1499 1116
3  1523 1522 23
3  464 463 772
3  1111 467 1492
3  768 461 773
3  771 773 1492
3  469 1495 769
3  469 770 1495
3  469 462 770
3  1109 770 462
3  1495 745 769
3  1495 442 745
3  1495 196 442
3  1491 1110 1498
3  1495 1498 205
3  1498 1495 1491
3  199 205 1498
3  351 1518 627
3  1302 1304 1506
3  17 15 1517
3  787 1512 785
3  1511 1512 1509
3  599 1512 618
3  1512 1511 785
3  619 618 1512
3  599 618 619
3  787 479 1512
3  1517 0 6
3  17 1517 6
3  0 1517 1515
3  23 1515 1517
3  1517 7 23
3  956 21 351
3  1517 1518 7
3  1518 1517 15
3  480 1143 1519
3  976 1519 1143
3  976 1143 648
3  28 1519 976
3  747 1464 1523
3  1523 1464 748
3  1523 748 193
3  1523 1496 462
3  201 462 1496
3  193 197 1523
3  1523 197 24
3  24 22 1523
3  1523 22 1522

