v 0.701498 0.762907 -0.117234
v 0.679419 0.749758 -0.0684085
v 0.673014 0.755492 -0.0871988
v 0.668789 0.730141 -0.0870416
v 0.683732 0.7525 -0.0728645
v 0.681845 0.753513 -0.0751196
v 0.66808 0.75585 -0.0819937
v 0.6813 0.757619 -0.083031
v 0.264309 0.819519 -0.252706
v 0.287684 0.708387 -0.111236
v 0.284576 0.694061 -0.0768301
v 0.0783441 0.684473 -0.0878458
v 0.07216 0.688758 -0.09733
v 0.289267 0.706763 -0.107749
v 0.289082 0.698048 -0.0838762
v 0.294134 0.699114 -0.0917736
v -0.228834 0.908953 -0.030776
v -0.179155 0.694089 -0.0777922
v -0.23207 0.908074 -0.0301625
v -0.0972414 0.844077 -0.0371128
v -0.206912 0.869064 -0.0703471
v -0.228242 0.910935 -0.0333515
v -0.195763 0.837196 -0.0261743
v -0.102168 0.716391 -0.0817585
v -0.102025 0.853438 -0.0519117
v -0.0980323 0.848847 -0.0443623
v -0.327421 0.83797 -0.0460863
v -0.331239 0.917932 -0.0406664
v -0.460385 0.696138 -0.0969
v -0.331868 0.63529 -0.0579387
v -0.331094 0.891082 -0.0206576
v -0.347191 0.866851 -0.0827664
v -0.314882 0.676666 -0.110745
v -0.341104 0.86671 -0.0814899
v -0.326816 0.840909 -0.050281
v -0.325798 0.915418 -0.036361
v -0.710831 0.628763 -0.129922
v -0.711327 0.880761 -0.0817246
v -0.690298 0.684198 -0.110498
v -0.709653 0.62221 -0.122775
v -0.716359 0.739172 -0.111085
v -0.718332 0.714519 -0.175489
v -0.677382 0.716479 -0.0618549
v -0.711244 0.618096 -0.114886
v -0.715802 0.737267 -0.107835
v -0.6978 0.68961 -0.121528
v 1.01369 0.726386 -0.0694269
v 0.998068 0.63803 0.0320107
v 1.04745 0.453036 0.0444957
v 0.991486 0.434377 0.0399956
v 1.02812 0.444055 0.0158648
v 1.04802 0.450783 0.0411037
v 1.05278 0.452168 0.0376956
v 1.05414 0.451102 0.0306884
v 1.05399 0.453504 0.033815
v 1.0041 0.648886 0.0243942
v 0.679644 0.591626 -0.111738
v 0.690293 0.440304 -0.136693
v 0.652952 0.519686 -0.0875407
v 0.689029 0.529083 -0.117313
v 0.684747 0.391859 -0.121662
v 0.686929 0.435388 -0.13306
v 0.712078 0.397285 -0.137358
v 0.68026 0.395204 -0.121329
v 0.687134 0.586329 -0.115295
v 0.708717 0.39987 -0.133788
v 0.429554 0.459183 -0.160462
v 0.431298 0.440667 -0.135063
v 0.281016 0.571547 -0.106556
v 0.458032 0.541821 -0.183284
v 0.423677 0.452673 -0.15218
v 0.327316 0.451298 -0.20048
v 0.421347 0.451532 -0.148896
v 0.453547 0.537241 -0.171379
v 0.277434 0.590233 -0.144165
v 0.319133 0.446298 -0.161576
v -0.198361 0.471186 -0.178632
v -0.114243 0.468892 -0.177209
v -0.107977 0.405194 0.047759
v -0.103434 0.577249 -0.131448
v -0.00739325 0.484583 -0.164008
v -0.0268641 0.471817 -0.150233
v -0.104973 0.571701 -0.126484
v -0.112202 0.455925 -0.148282
v -0.193043 0.546101 -0.128075
v -0.198283 0.567099 -0.1638
v -0.548995 0.334945 -0.124191
v -0.564238 0.480603 -0.124802
v -0.336957 0.513241 -0.0658185
v -0.316924 0.572058 -0.14168
v -0.460655 0.539629 -0.191884
v -0.563482 0.478027 -0.109816
v -0.563876 0.480996 -0.117638
v -0.331457 0.479248 -0.131102
v -0.308754 0.493614 -0.17554
v -0.449431 0.357132 -0.142055
v -0.701131 0.599649 -0.0882267
v -0.751358 0.532422 -0.0728154
v -0.705142 0.602867 -0.095388
v -0.712618 0.610467 -0.105939
v -0.711582 0.607493 -0.09982
v -0.711923 0.377518 -0.118982
v -0.707793 0.37545 -0.11151
v 1.0046 0.285599 0.0424906
v 0.905231 0.129868 -0.00883437
v 1.02193 0.304484 -0.0113769
v 1.00258 0.177204 0.0439749
v 1.04821 0.311235 -0.00540806
v 0.925713 0.134039 -0.0503926
v 0.910101 0.130635 -0.0162847
v 1.02903 0.111913 -0.0233721
v 1.00391 0.17815 0.0369017
v 0.913154 0.131559 -0.0257442
v 0.342618 0.158712 0.0707049
v 0.612296 0.239724 -0.096351
v 0.75732 0.0266722 -0.0726455
v 0.615931 0.111479 -0.137769
v 0.615778 0.241994 -0.109406
v 0.337195 0.160694 0.0776513
v 0.613948 0.240835 -0.102756
v 0.604479 0.11681 -0.115137
v 0.522051 0.122409 -0.153892
v 0.422719 0.181025 -0.203312
v 0.305372 0.0273741 -0.190666
v 0.312017 0.0236054 -0.181977
v 0.318441 0.0236867 -0.18599
v 0.417237 0.175748 -0.160083
v 0.170376 0.284189 -0.202238
v 0.422334 0.00929012 -0.196726
v 0.170648 0.285825 -0.210654
v 0.295301 0.322628 -0.173902
v 0.403544 0.019781 -0.151896
v -0.0104735 0.299949 -0.205496
v -0.00779228 0.0845386 -0.289217
v -0.121683 0.296929 -0.227628
v -0.230445 0.163115 -0.227222
v -0.0224732 0.244201 -0.235247
v -0.131671 0.0344885 -0.259492
v -0.207679 0.218182 -0.216363
v -0.00971313 0.0654956 -0.283587
v -0.116878 0.238651 -0.218517
v -0.132707 0.0343915 -0.255528
v -0.333594 0.183773 -0.165586
v -0.334866 0.329912 -0.238892
v -0.561676 0.142692 -0.134635
v -0.320151 0.322775 -0.191101
v -0.553804 0.132255 -0.0943625
v -0.444294 0.144474 -0.189158
v -0.347592 0.190734 -0.218993
v -0.443135 0.1393 -0.140644
v -0.334338 0.127827 -0.243289
v -0.329074 0.327827 -0.228914
v 0.893452 -0.181517 0.0176018
v 1.00052 -0.167218 0.0424609
v 0.925544 -0.274576 -0.0757736
v 0.895077 -0.0977488 0.00291836
v 0.989463 -0.323827 0.0353502
v 1.01693 -0.257288 -0.0239809
v 0.914559 -0.201296 -0.0737338
v 1.02619 -0.199087 -0.037862
v 0.910148 -0.0803335 -0.0516092
v 1.02332 -0.110989 -0.0124456
v 0.654466 -0.146979 -0.120424
v 0.647295 -0.144719 -0.0990613
v 0.644469 -0.145707 -0.109423
v 0.644747 -0.146194 -0.114266
v 0.290938 -0.0704073 -0.256334
v 0.289644 -0.0699608 -0.246755
v 0.295841 -0.0887726 -0.181366
v 0.289548 -0.0771506 -0.239376
v 0.293828 -0.0918415 -0.232611
v 0.42357 -0.00555978 -0.192562
v 0.295996 -0.09283 -0.188254
v 0.441261 -0.256443 -0.182736
v 0.292633 -0.0950045 -0.223493
v 0.427721 -0.112216 -0.180864
v 0.140162 -0.183261 -0.271884
v -0.133027 -0.115044 -0.268721
v -0.135303 -0.11433 -0.259921
v -0.581895 -0.107277 -0.165068
v -0.563011 -0.11443 -0.100543
v -0.56895 -0.0868747 -0.100269
v -0.414251 -0.188445 -0.143304
v -0.415341 -0.262375 -0.126798
v -0.581677 -0.0322889 -0.113491
v -0.574295 -0.114887 -0.141562
v -0.343663 -0.036206 -0.223213
v -0.417936 -0.264102 -0.135759
v -0.563433 -0.115196 -0.108914
v -0.641879 -0.0260672 -0.120865
v -0.62561 -0.253771 -0.106577
v -0.637045 -0.258403 -0.131125
v -0.632514 -0.255543 -0.116407
v -0.633385 -0.257224 -0.124733
v -0.640811 -0.0258711 -0.111303
v 1.0334 -0.5052 -0.0400957
v 0.984595 -0.367531 0.0359109
v 0.984324 -0.477659 0.0109303
v 1.01279 -0.673969 0.00203554
v 0.979192 -0.58955 0.0306585
v 0.983642 -0.659282 -0.00147952
v 1.05026 -0.39529 -0.0166012
v 1.01134 -0.605741 -0.00979956
v 0.990817 -0.369071 0.0312417
v 0.989975 -0.660569 -0.00312721
v 0.784647 -0.669758 -0.0514919
v 0.815536 -0.702717 -0.108503
v 0.781726 -0.670043 -0.0526119
v 0.809174 -0.699319 -0.102417
v 0.80536 -0.695371 -0.0947182
v 0.790359 -0.678218 -0.068527
v 0.79899 -0.691978 -0.0886435
v 0.786498 -0.67803 -0.0688091
v 0.792619 -0.688584 -0.0825687
v 0.776866 -0.68037 -0.0754935
v 0.150119 -0.486431 -0.131659
v 0.180806 -0.596637 -0.126708
v 0.14733 -0.491164 -0.155755
v 0.145989 -0.484981 -0.138141
v 0.163692 -0.369343 -0.196545
v 0.176605 -0.595918 -0.125769
v 0.163973 -0.365588 -0.181624
v 0.147515 -0.488704 -0.148615
v 0.163844 -0.367462 -0.189068
v -0.193104 -0.618244 -0.100375
v -0.187664 -0.625935 -0.12254
v -0.194007 -0.622843 -0.110237
v -0.189408 -0.62244 -0.115434
v -0.10422 -0.555403 -0.151568
v -0.105036 -0.543912 -0.115235
v -0.10065 -0.551146 -0.140436
v -0.101361 -0.541221 -0.116056
v -0.0968375 -0.547363 -0.130423
v -0.0933037 -0.547711 -0.130659
v -0.527908 -0.522862 -0.138132
v -0.402446 -0.411173 -0.218761
v -0.409709 -0.410482 -0.162571
v -0.40443 -0.353848 -0.145698
v -0.521324 -0.517276 -0.115637
v -0.398697 -0.451185 -0.136473
v -0.411724 -0.558765 -0.181337
v -0.403517 -0.455099 -0.158055
v -0.40292 -0.409172 -0.212101
v -0.408147 -0.355016 -0.138758
v 0.995587 -0.757482 -0.0409788
v 0.993566 -0.769104 -0.0567052
v 0.993507 -0.761818 -0.0496735
v 1.00217 -0.753708 -0.0325681
v 0.26917 -0.732545 -0.069902
v 0.130145 -0.68808 -0.0922952
v 0.122769 -0.687181 -0.0918254
v 0.269266 -0.73578 -0.0758733
v 0.262443 -0.798497 -0.0366462
v 0.273148 -0.742863 -0.0820571
v 0.264524 -0.804058 -0.0454819
v 0.269893 -0.746139 -0.0886675
v -0.0836594 -0.843766 -0.048251
v -0.0371844 -0.786711 -0.0239483
v -0.0371386 -0.791998 -0.0323788
v -0.0428645 -0.798058 -0.0430577
v -0.0482112 -0.808198 -0.0551418
v -0.40775 -0.740835 -0.100698
v -0.461379 -0.817039 -0.0655024
v -0.434476 -0.820987 -0.123466
v -0.392636 -0.712546 -0.0600117
v -0.461588 -0.815657 -0.0589886
v -0.402406 -0.731719 -0.0894585
v -0.4645 -0.816441 -0.060678
v -0.395264 -0.714941 -0.0646075
v -0.398071 -0.719258 -0.0673041
v -0.464506 -0.819345 -0.0605343
v -0.691193 -0.708825 -0.0612348
v -0.74956 -0.680543 -0.1198
v -0.714891 -0.647605 -0.0700936
v -0.69151 -0.709999 -0.0632415
v -0.748617 -0.677971 -0.115001
v -0.718694 -0.650388 -0.075845
v -0.728986 -0.658072 -0.0863068
v -0.748937 -0.67086 -0.102253
v -0.75292 -0.658325 -0.08038
v -0.752175 -0.64901 -0.0634696
v -0.722515 -0.922978 -0.0662787
v -0.722462 -0.911078 -0.0510949
v -0.724851 -0.920859 -0.0639893
v -0.723656 -0.915969 -0.0575421
v 0.651278 0.864904 -0.0117268
v 0.689265 0.936975 -0.0489865
v 0.687636 0.880546 -0.0386664
v 0.661891 0.912953 -0.0108098
v 0.667876 0.915658 -0.0152175
v 0.685566 0.93259 -0.0428796
v 0.668567 0.919424 -0.0200105
v 0.681892 0.928195 -0.0367643
v 0.678383 0.927355 -0.0315778
v 0.67752 0.922868 -0.0258615
v 0.29117 0.902289 -0.00888131
v 0.290208 0.906444 -0.0142184
v 0.291726 0.912558 -0.0225907
v 0.762585 0.737158 -0.0868
v 0.741772 0.798909 -0.0662055
v 0.749516 0.817186 -0.0772962
v 0.671776 0.750744 -0.102453
v 0.652828 0.763664 -0.023632
v 0.66232 0.734763 -0.0747729
v 0.680006 0.800809 -0.079779
v 0.771525 0.701134 -0.0770929
v 0.668254 0.74826 -0.0977902
v 0.663055 0.738088 -0.0803165
v 0.384471 0.701772 -0.0825478
v 0.38183 0.69634 -0.0778759
v 0.401984 0.800003 -0.0565878
v 0.295058 0.934518 -0.0563352
v 0.399662 0.794902 -0.0483746
v 0.28194 0.720112 -0.114396
v 0.293809 0.926587 -0.0455674
v 0.29216 0.920652 -0.037387
v 0.287064 0.869008 -0.0316803
v 0.0516532 0.709316 -0.120385
v 0.0800193 0.703658 -0.0780262
v 0.0571323 0.756294 -0.0763078
v 0.0734411 0.75469 -0.0493561
v 0.0551183 0.710427 -0.110566
v 0.267369 0.716343 -0.105019
v 0.065461 0.710726 -0.100633
v 0.0813375 0.70031 -0.0839808
v 0.290516 0.914862 -0.029401
v -0.822697 0.741517 -0.0752842
v -1.00764 0.758084 -0.0680763
v -1.00142 0.758598 -0.0630555
v -0.988563 0.755707 -0.059694
v -1.00641 0.719477 0.000459077
v -0.912891 0.722439 0.00514362
v -0.997442 0.702134 0.0262703
v -0.964014 0.75404 -0.0537638
v -1.00549 0.715774 0.00757837
v -1.00453 0.712091 0.0146535
v -0.816856 0.747289 -0.0394675
v 0.706967 0.440028 -0.106469
v 0.714572 0.390809 -0.152654
v 0.726484 0.567606 -0.11951
v 0.693099 0.453266 -0.0912956
v 0.729765 0.561063 -0.105919
v 0.728878 0.566151 -0.116778
v 0.636096 0.52159 -0.0950533
v 0.640565 0.527249 -0.109089
v 0.709295 0.451053 -0.120603
v 0.63699 0.528042 -0.103233
v 0.555066 0.539852 -0.123525
v 0.434038 0.46338 -0.13193
v 0.46833 0.56907 -0.146605
v 0.460384 0.496557 -0.20117
v 0.481122 0.58956 -0.137572
v 0.467461 0.5814 -0.182205
v 0.295945 0.506435 -0.128393
v 0.470826 0.579017 -0.177316
v 0.45743 0.489344 -0.189993
v 0.436733 0.46984 -0.141486
v -0.194323 0.573178 -0.117477
v -0.187036 0.458523 -0.167011
v -0.10878 0.47664 -0.160951
v -0.203471 0.671704 -0.107367
v -0.119638 0.555983 -0.12193
v -0.187854 0.374508 -0.198404
v -0.109405 0.47445 -0.154324
v -0.19562 0.579882 -0.133495
v -0.193909 0.575632 -0.123495
v -0.185791 0.453093 -0.150201
v -0.807261 0.665457 -0.0765677
v -0.713883 0.513844 -0.12143
v -0.707602 0.364279 -0.0805934
v -0.573284 0.473868 -0.102496
v -0.683947 0.697354 -0.0900714
v -0.589337 0.482527 -0.126012
v -0.691756 0.66151 -0.120222
v -0.675259 0.649761 -0.0809854
v -0.584472 0.480372 -0.120313
v -0.574743 0.476062 -0.108916
v -0.952988 0.472758 -0.088118
v -1.00228 0.630499 -0.036047
v -0.876055 0.434263 -0.00170181
v -1.01647 0.498258 -0.0438317
v -0.941039 0.419334 -0.0705708
v -1.01197 0.652285 0.0185001
v -0.936218 0.463832 -0.0628629
v -0.889028 0.392341 -0.00910471
v -1.01495 0.496599 -0.0392365
v -1.00233 0.629049 -0.0327003
v 0.620004 0.117263 -0.141267
v 0.612517 0.236216 -0.0920623
v 0.752857 0.0389603 -0.0667686
v 0.760785 0.0363861 -0.0783232
v 0.757271 0.0392003 -0.0747458
v 0.60678 0.116278 -0.128253
v 0.604446 0.116767 -0.100292
v 0.413028 0.174786 -0.161633
v 0.304849 0.262326 -0.226868
v 0.293907 0.00165661 -0.162222
v 0.300283 0.012229 -0.234234
v 0.289084 0.309384 -0.171351
v 0.49362 0.167415 -0.144081
v 0.290947 0.254264 -0.181031
v 0.444742 0.321205 -0.178352
v 0.301597 0.00867593 -0.225143
v 0.302052 0.0016704 -0.175102
v -0.0198896 0.0474677 -0.300597
v -0.0232906 0.0464398 -0.266676
v -0.13317 0.0616651 -0.256354
v 0.169874 0.294549 -0.22456
v -0.124644 0.0611912 -0.246174
v -0.0291033 0.0472872 -0.293156
v -0.0303838 0.0467417 -0.275259
v -0.121765 0.0616279 -0.257473
v -0.0132323 0.296448 -0.219012
v 0.168832 0.2924 -0.213927
v -0.441412 0.157447 -0.188763
v -0.447314 0.336815 -0.146117
v -0.349734 0.322109 -0.230357
v -0.334407 0.322812 -0.218698
v -0.320167 0.342981 -0.195336
v -0.143449 0.193351 -0.261444
v -0.334811 0.319235 -0.219362
v -0.437994 0.149142 -0.144293
v -0.330523 0.245939 -0.205717
v -0.351609 0.237014 -0.24014
v -0.54699 0.127927 -0.129016
v -0.554564 0.123549 -0.118556
v -0.535616 0.126966 -0.120046
v -0.540355 0.127547 -0.125858
v -0.508841 0.339613 -0.147426
v -1.00424 0.335135 -0.0724277
v -1.03733 0.319607 -0.0133341
v -0.987326 0.354001 -0.00434166
v -1.01395 0.0259691 0.0107225
v -0.978374 0.192402 0.00260734
v -1.10286 0.027434 -0.0528416
v -1.00745 0.334248 -0.0679251
v -0.994684 0.292378 0.0406749
v -0.918938 0.192669 -0.00987082
v -1.00246 0.333142 -0.0638955
v 0.437694 -0.118016 -0.189335
v 0.432902 -0.251074 -0.154012
v 0.451226 -0.255355 -0.179682
v 0.425856 -0.119321 -0.164699
v 0.534538 -0.260567 -0.154663
v 0.531016 -0.25746 -0.138554
v 0.434966 -0.120337 -0.177621
v 0.442478 -0.251048 -0.155586
v 0.432021 -0.119805 -0.171158
v 0.44874 -0.251625 -0.159704
v -0.133175 -0.14762 -0.256365
v -0.133181 -0.148483 -0.265248
v -0.449906 -0.225041 -0.218701
v -0.422239 -0.331472 -0.208666
v -0.441596 -0.235353 -0.166042
v -0.443671 -0.233106 -0.174631
v -0.417308 -0.3297 -0.201402
v -0.444784 -0.223827 -0.21132
v -0.439475 -0.226497 -0.180198
v -0.325372 -0.268823 -0.210515
v -0.436564 -0.221012 -0.193552
v -0.439665 -0.222613 -0.203934
v -0.546579 -0.0677108 -0.0759325
v -0.580789 -0.0749872 -0.14514
v -0.580339 -0.0932408 -0.1446
v -0.551273 -0.0647369 -0.0860753
v -0.573793 -0.0963092 -0.136754
v -0.559698 -0.0944177 -0.110213
v -0.555494 -0.0687364 -0.0957337
v -0.571258 -0.0743259 -0.133718
v -0.566342 -0.0737392 -0.122955
v -0.560219 -0.0695039 -0.110835
v -1.01472 -0.264014 -0.0222814
v -1.02346 -0.314703 -0.0257068
v -0.880947 -0.270311 -0.023189
v -0.865257 -0.307095 -0.00292892
v -0.984397 -0.284283 0.0452667
v -0.907628 -0.286209 -0.0640415
v -0.891069 -0.273658 -0.038925
v -0.998559 -0.243386 0.0316457
v -1.01807 -0.262781 -0.0149651
v -0.870026 -0.31316 -0.0139146
v 0.445099 -0.37151 -0.169815
v 0.437204 -0.361321 -0.131943
v 0.442496 -0.364314 -0.155192
v 0.437082 -0.362018 -0.134417
v 0.439661 -0.36541 -0.147024
v 0.14261 -0.474297 -0.138896
v 0.00280585 -0.364347 -0.206116
v 0.148345 -0.481068 -0.168889
v 0.134269 -0.473285 -0.144058
v 0.0157352 -0.359942 -0.190933
v 0.135606 -0.47584 -0.151637
v -0.403637 -0.653083 -0.112994
v -0.409628 -0.64997 -0.105152
v -0.421487 -0.419716 -0.189525
v -0.400512 -0.64835 -0.103236
v -0.112898 -0.540555 -0.153878
v -0.413377 -0.652649 -0.110326
v -0.410706 -0.653204 -0.112008
v -0.406071 -0.372704 -0.167128
v -0.105082 -0.537094 -0.137252
v -0.0853306 -0.649973 -0.118215
v -0.718364 -0.704529 -0.121714
v -0.719851 -0.701239 -0.114513
v -0.701486 -0.688199 -0.0827318
v -0.709229 -0.698743 -0.103502
v -0.531516 -0.510933 -0.145161
v -0.519289 -0.50853 -0.119744
v -0.706371 -0.690997 -0.0877435
v -0.714498 -0.701787 -0.108963
v -0.705139 -0.694338 -0.0949771
v -0.525357 -0.511497 -0.137425
v -0.88905 -0.432493 -0.0160453
v -0.916145 -0.67989 -0.0423374
v -0.887937 -0.481836 -0.00819502
v -0.99783 -0.480723 -0.00592713
v -0.996214 -0.654282 0.0114317
v -0.900541 -0.462701 -0.0542792
v -0.901933 -0.666703 -0.00953625
v -1.02158 -0.426006 -0.0176579
v -1.01796 -0.661295 -0.0148799
v -0.891825 -0.370295 -0.0577405
v 0.543509 -0.825032 -0.0566106
v -0.0574805 -0.809252 -0.0960535
v 0.135499 -0.852602 -0.038181
v 0.136813 -0.856664 -0.0443815
v 0.133988 -0.722122 -0.0977873
v -0.0569711 -0.803811 -0.0871014
v 0.140116 -0.710032 -0.0768961
v 0.135444 -0.797703 -0.0488991
v 0.142687 -0.717417 -0.0907821
v 0.14428 -0.714218 -0.0852494
v 0.137207 -0.817537 -0.0755905
v -0.0486336 -0.77695 -0.0386966
v -0.405584 -0.746003 -0.0582888
v -0.0515076 -0.78102 -0.0449234
v -0.396314 -0.741081 -0.0508931
v -0.0507243 -0.784365 -0.0505912
v -0.416494 -0.761189 -0.0779348
v -0.0564187 -0.798371 -0.0781592
v -0.0572555 -0.78916 -0.057377
v -0.0567371 -0.794236 -0.0712342
v -0.0564499 -0.792519 -0.063073
v -0.69759 -0.769749 -0.0829415
v -0.694625 -0.748964 -0.0509989
v -0.70057 -0.769416 -0.0817913
v -0.699193 -0.751828 -0.0555912
v -0.703761 -0.754691 -0.0601834
v -0.699623 -0.754261 -0.0600998
v -1.01634 -0.736107 -0.0235256
v -1.01151 -0.72688 -0.0132045
v -0.990001 -0.699963 0.0224811
v -1.00662 -0.717723 -0.002928
v -0.995835 -0.704296 0.0149019
v -1.00086 -0.713351 0.00469745
v 0.589912 -0.958084 -0.103205
v 0.589577 -0.954517 -0.0985405
v 0.582777 -0.915397 -0.0430707
v 0.589242 -0.950951 -0.0938757
v 0.588908 -0.947385 -0.0892109
v 0.586365 -0.923209 -0.0537602
v 0.588573 -0.943818 -0.0845461
v 0.587904 -0.936686 -0.0752165
v 0.588238 -0.940252 -0.0798813
v 0.586504 -0.924685 -0.0556854
