OFF
151 294 0

-4.1 -2.1 2.4
-4.1 11.7 2.4
-4.1 4.8 2.4
-4.1 11.7 9.2
-11 4.8 9.2
-4.1 4.8 9.2
-4.1 -2.1 9.2
2.8 -2.1 9.2
2.8 4.8 9.2
2.8 4.8 2.4
2.8 -2.1 2.4
2.8 -9 9.2
-1 1 0
1 1 0
1 -1 0
-1 -1 0
-5 1 0
-3 -3 0
-3 1 0
-3 3 0
1 -3 0
1 3 0
3 -3 0
3 -1 0
3 1 0
3 3 0
5 1 0
-0.499913 0.914338 0.0229143
-0.922971 0.775484 0.0609882
0.198151 0.899776 0.0321338
1.00452 -0.164167 0.0114915
-0.222176 -0.0790239 -0.0597509
-0.0275684 -0.670645 0.100669
-0.901012 -0.418251 0.0887226
-0.0182173 -0.946729 0.0161354
-0.89974 -0.820529 0.0861414
0.558402 0.701002 0.0909788
-0.773615 0.748413 0.0614568
0.518128 -0.186239 0.0738244
-1.01401 -0.0365183 0.00430922
0.984252 -0.742913 0.00769042
-0.473478 -0.748182 0.0787384
0.997192 -0.930504 0.00514032
0.480841 -0.900532 0.0296547
-0.0224924 -0.94186 0.0179417
-0.311341 0.924523 0.0224715
-0.9291 0.767659 0.0570381
1.00655 0.951303 0.0131244
-0.248868 0.84547 0.0438379
-1.00485 0.433341 0.00385585
1.00914 0.130006 0.00800058
-0.0313693 0.15906 0.0891705
-1.00853 0.224148 -0.00449674
1.00104 -0.591928 0.00455359
-0.0351524 -0.513496 0.142836
-0.0793929 -0.478096 0.16011
1.00984 0.814224 0.00853991
0.45507 0.806635 0.184274
0.142377 0.764094 0.0699541
0.0326735 0.410587 0.173556
1.00529 -0.256584 0.00286604
0.461126 0.234754 -0.073475
-0.914544 -0.273979 0.0170334
-0.87645 -0.628435 0.0937156
-0.458428 0.942171 0.0166894
0.995613 0.761009 0.0182359
0.0574203 0.434414 0.169105
-0.310736 0.734574 0.0844232
-0.942284 0.685402 0.0234583
0.220639 0.175245 0.237958
-1.00206 -0.17212 0.0101895
0.990901 -0.812073 0.0122975
-0.022761 -0.655761 0.10314
0.992194 0.686676 0.0166492
-0.0394221 0.562872 0.121665
-0.943245 0.643633 0.0393323
0.994133 -0.130633 0.0121903
0.127731 -0.0634788 0.0164228
-0.934898 0.245072 0.0300091
1.00103 -0.314437 0.00177942
-0.561616 -0.422621 0.140981
-0.896676 -0.485148 0.0781935
-0.305808 0.863007 0.0405847
1.00068 0.64347 0.0207075
0.993744 0.324271 0.0196499
-0.282928 0.0323329 0.215464
0.915947 -0.487488 0.0572597
-0.312083 -0.310258 0.20245
-1.02726 -0.544998 -0.0470275
0.989031 0.883944 0.0185474
0.998137 0.502031 0.0137771
0.0991617 0.753107 0.0728727
-0.0352854 0.414887 0.167613
-0.758019 0.526812 0.0550371
-0.320597 0.0891743 0.213512
-0.938767 0.227944 0.0520752
0.990239 -0.789605 0.0103033
-0.562849 -0.447923 0.136529
-0.897336 -0.455115 0.0806971
0.99233 -0.805993 0.00544406
0.990467 0.847967 -0.0133611
-0.305234 0.732518 0.0844184
0.909217 -0.302027 0.0277933
-0.336347 0.0180537 0.201079
-0.290315 -0.280677 0.339367
0.995341 0.955563 0.00940398
1.00238 0.752359 0.00947668
-0.0464102 0.692728 0.0908411
-0.360843 0.0313143 0.195846
-1.00865 0.0866727 -0.0208896
0.734665 -0.518317 0.195281
-0.571411 -0.428863 0.125039
0.995013 0.680179 0.0218372
-0.323254 0.331286 0.209611
0.902363 0.141725 0.042838
-0.279102 0.0855916 0.209632
1.00421 -0.977546 -0.0207566
0.991478 0.740947 0.012892
0.0940231 0.597894 0.120233
-0.017993 0.521855 0.145923
-0.341673 0.0282186 0.206894
-0.938157 0.225824 0.0242657
0.997983 -0.788285 0.0141415
-0.591987 -0.367063 0.115468
1.00546 -0.837756 0.00248019
0.995671 0.878763 0.0275952
-0.0292635 0.46347 0.166431
-0.90442 -0.38945 0.061427
0.985102 0.819812 0.00568743
0.148594 0.731591 0.0799561
-0.338072 0.299153 0.217719
-0.934016 0.706206 0.0401847
-0.32822 0.0335851 0.204812
-0.927818 0.0724868 0.0323598
-0.307819 0.535146 0.141382
0.904651 0.164565 0.0473565
-0.319469 0.286678 0.211336
-0.936862 0.704362 0.0442451
-0.337272 0.186127 0.225311
-0.892006 -0.849 0.0817791
0.997505 0.839551 0.0136333
-0.324078 0.438848 0.159538
1.01961 -0.207768 -0.0497338
-0.935193 0.718653 0.0548055
-0.932886 0.0321425 0.0283927
-0.909646 -0.49532 0.052844
-1 -5 0
-1 -3 0
-1 3 0
-1 5 0
-3 -1 0
3  2 4 0
3  5 4 2
3  5 6 4
3  6 0 4
3  19 2 18
3  19 18 12
3  3 9 8
3  3 5 9
3  5 1 9
3  5 2 1
3  10 34 147
3  147 17 146
3  26 8 9
3  97 33 98
3  18 2 16
3  128 65 140
3  140 65 56
3  93 95 78
3  16 2 0
3  22 20 10
3  13 24 21
3  15 0 147
3  22 14 20
3  10 14 22
3  24 25 21
3  34 15 147
3  86 40 53
3  86 110 40
3  9 21 25
3  18 28 12
3  140 56 125
3  10 24 23
3  7 8 26
3  10 7 26
3  24 26 25
3  25 26 9
3  26 24 10
3  10 86 53
3  49 95 93
3  43 34 20
3  10 20 34
3  83 90 84
3  36 69 61
3  89 36 100
3  83 36 90
3  43 72 32
3  110 72 43
3  10 60 79
3  53 122 10
3  24 13 47
3  53 40 122
3  140 89 128
3  107 134 74
3  97 63 35
3  82 48 45
3  91 118 129
3  118 66 57
3  100 36 128
3  119 126 66
3  102 79 60
3  43 44 34
3  67 134 101
3  10 23 60
3  91 48 107
3  135 61 114
3  13 57 47
3  21 57 13
3  9 1 2
3  29 45 48
3  27 37 67
3  27 28 37
3  126 59 66
3  36 61 135
3  123 80 104
3  58 91 129
3  57 129 118
3  90 36 84
3  10 122 42
3  80 33 111
3  80 111 97
3  97 111 33
3  149 2 148
3  9 2 149
3  149 148 9
3  147 146 10
3  93 75 49
3  120 94 108
3  108 94 138
3  37 137 131
3  37 143 137
3  30 76 102
3  110 55 54
3  104 54 55
3  31 85 87
3  77 85 31
3  31 87 77
3  66 59 69
3  66 69 57
3  143 46 18
3  10 79 86
3  113 59 126
3  148 2 19
3  82 45 64
3  97 98 81
3  110 86 79
3  30 50 76
3  27 67 82
3  49 143 18
3  116 42 43
3  123 104 108
3  67 48 82
3  114 61 69
3  69 38 114
3  112 73 36
3  37 134 67
3  75 93 68
3  75 68 37
3  37 68 93
3  58 129 57
3  57 91 58
3  69 77 38
3  38 77 55
3  141 126 134
3  112 36 83
3  97 81 63
3  141 113 126
3  104 103 120
3  85 103 104
3  85 120 103
3  27 82 64
3  108 104 120
3  50 24 84
3  30 60 23
3  51 92 115
3  51 69 92
3  84 24 83
3  77 69 85
3  85 69 51
3  96 43 99
3  99 71 96
3  71 42 124
3  99 42 71
3  138 78 108
3  38 55 110
3  131 75 37
3  123 127 33
3  99 43 42
3  107 48 101
3  101 48 67
3  15 35 0
3  139 35 15
3  63 88 33
3  81 88 63
3  124 42 122
3  29 48 91
3  29 91 57
3  23 50 30
3  93 78 130
3  126 74 134
3  85 94 132
3  94 85 115
3  49 75 143
3  62 144 70
3  35 63 0
3  51 115 85
3  39 95 52
3  39 52 18
3  18 52 95
3  117 36 73
3  124 122 71
3  33 80 123
3  76 114 38
3  37 28 143
3  120 132 94
3  107 101 134
3  106 117 112
3  119 74 126
3  70 144 39
3  62 70 33
3  108 78 95
3  97 104 80
3  95 109 133
3  39 109 95
3  39 133 109
3  108 121 133
3  95 121 108
3  95 133 121
3  41 104 35
3  97 35 104
3  125 89 140
3  104 44 32
3  104 41 44
3  87 104 55
3  104 32 54
3  54 32 72
3  145 98 88
3  81 98 145
3  145 88 81
3  43 32 44
3  100 128 89
3  116 43 14
3  14 43 20
3  106 112 65
3  112 56 65
3  83 56 112
3  76 38 102
3  102 38 110
3  57 36 89
3  89 125 57
3  91 107 118
3  118 119 66
3  119 118 74
3  33 127 62
3  117 73 112
3  142 30 102
3  107 74 118
3  87 85 104
3  87 55 77
3  10 42 14
3  110 43 96
3  54 72 110
3  102 110 79
3  98 33 88
3  41 35 139
3  139 44 41
3  139 15 34
3  57 69 36
3  39 144 133
3  14 42 116
3  85 132 120
3  18 95 49
3  57 125 105
3  105 125 47
3  105 47 57
3  71 122 96
3  110 122 40
3  110 96 122
3  24 47 125
3  83 24 125
3  83 125 56
3  76 50 114
3  135 114 50
3  84 135 50
3  84 36 135
3  134 113 141
3  23 24 50
3  137 143 75
3  123 62 127
3  130 59 113
3  131 137 75
3  130 69 59
3  93 130 37
3  130 113 37
3  128 36 117
3  65 117 106
3  128 117 65
3  130 78 138
3  136 69 130
3  130 138 136
3  70 39 33
3  136 138 92
3  138 115 92
3  92 69 136
3  115 138 94
3  44 139 34
3  37 113 134
3  142 60 30
3  102 60 142
3  143 28 46
3  18 46 28
3  62 123 144
3  108 144 123
3  108 133 144
3  146 7 10
3  6 7 146
3  146 0 6
3  7 6 11
3  146 17 0
3  19 12 148
3  27 64 148
3  148 64 45
3  148 45 57
3  21 148 57
3  9 148 21
3  27 148 12
3  12 28 27
3  57 45 29
3  33 39 150
3  63 33 150
3  150 0 63
3  18 0 150
3  150 39 18
3  16 0 18
3  147 0 17

