OFF
163 318 0

-4.1 -2.1 2.4
-4.1 11.7 2.4
-4.1 4.8 2.4
-4.1 11.7 9.2
-11 4.8 9.2
-4.1 4.8 9.2
-4.1 -2.1 9.2
2.8 -2.1 9.2
2.8 4.8 9.2
2.8 4.8 2.4
2.8 -2.1 2.4
2.8 -9 9.2
-1 1 0
1 1 0
1 -1 0
-1 -1 0
-5 1 0
-3 -3 0
-3 1 0
-3 3 0
1 -3 0
1 3 0
3 -3 0
3 -1 0
3 1 0
3 3 0
5 1 0
-0.499913 0.914338 0.0229143
-0.922971 0.775484 0.0609882
0.984057 0.571139 0.0014541
0.198151 0.899776 0.0321338
1.00452 -0.164167 0.0114915
-0.222176 -0.0790239 -0.0597509
-1.00404 -0.0695663 -0.0051376
-0.0275684 -0.670645 0.100669
-0.901012 -0.418251 0.0887226
-0.0182173 -0.946729 0.0161354
-0.89974 -0.820529 0.0861414
0.558402 0.701002 0.0909788
-0.773615 0.748413 0.0614568
0.518128 -0.186239 0.0738244
-1.01401 -0.0365183 0.00430922
0.984252 -0.742913 0.00769042
-0.473478 -0.748182 0.0787384
0.997192 -0.930504 0.00514032
0.480841 -0.900532 0.0296547
-0.0224924 -0.94186 0.0179417
-0.311341 0.924523 0.0224715
-0.9291 0.767659 0.0570381
1.00655 0.951303 0.0131244
-0.248868 0.84547 0.0438379
-1.00485 0.433341 0.00385585
1.00914 0.130006 0.00800058
-0.0313693 0.15906 0.0891705
-1.00853 0.224148 -0.00449674
1.00104 -0.591928 0.00455359
-0.0351524 -0.513496 0.142836
-0.0793929 -0.478096 0.16011
1.00984 0.814224 0.00853991
0.45507 0.806635 0.184274
0.142377 0.764094 0.0699541
0.0326735 0.410587 0.173556
-1.00816 0.621223 0.00234964
1.00529 -0.256584 0.00286604
0.461126 0.234754 -0.073475
-0.914544 -0.273979 0.0170334
-0.87645 -0.628435 0.0937156
-0.458428 0.942171 0.0166894
0.995613 0.761009 0.0182359
0.0574203 0.434414 0.169105
-0.310736 0.734574 0.0844232
-0.942284 0.685402 0.0234583
0.901139 0.1728 0.0342305
0.220639 0.175245 0.237958
-1.00206 -0.17212 0.0101895
0.990901 -0.812073 0.0122975
-0.022761 -0.655761 0.10314
-1.00237 -0.291356 0.00950176
0.992194 0.686676 0.0166492
-0.0394221 0.562872 0.121665
-0.943245 0.643633 0.0393323
0.994133 -0.130633 0.0121903
0.127731 -0.0634788 0.0164228
-0.934898 0.245072 0.0300091
1.00103 -0.314437 0.00177942
-0.561616 -0.422621 0.140981
-0.896676 -0.485148 0.0781935
-0.305808 0.863007 0.0405847
1.00068 0.64347 0.0207075
0.993744 0.324271 0.0196499
-0.282928 0.0323329 0.215464
0.915947 -0.487488 0.0572597
-0.312083 -0.310258 0.20245
-1.02726 -0.544998 -0.0470275
0.989031 0.883944 0.0185474
0.0991617 0.753107 0.0728727
-0.0352854 0.414887 0.167613
-0.758019 0.526812 0.0550371
-0.320597 0.0891743 0.213512
-0.938767 0.227944 0.0520752
0.990239 -0.789605 0.0103033
-0.562849 -0.447923 0.136529
-0.897336 -0.455115 0.0806971
0.99233 -0.805993 0.00544406
0.990467 0.847967 -0.0133611
-0.305234 0.732518 0.0844184
0.909217 -0.302027 0.0277933
-0.336347 0.0180537 0.201079
-0.290315 -0.280677 0.339367
0.995341 0.955563 0.00940398
1.00238 0.752359 0.00947668
0.202347 0.446849 0.162384
-0.0464102 0.692728 0.0908411
-0.360843 0.0313143 0.195846
-1.00865 0.0866727 -0.0208896
0.734665 -0.518317 0.195281
-0.571411 -0.428863 0.125039
0.995013 0.680179 0.0218372
-0.323254 0.331286 0.209611
0.902363 0.141725 0.042838
-0.279102 0.0855916 0.209632
1.00421 -0.977546 -0.0207566
0.991478 0.740947 0.012892
0.0940231 0.597894 0.120233
-0.017993 0.521855 0.145923
-0.932047 0.735313 0.0541353
-0.341673 0.0282186 0.206894
0.997983 -0.788285 0.0141415
-0.591987 -0.367063 0.115468
1.00546 -0.837756 0.00248019
0.995671 0.878763 0.0275952
-0.0292635 0.46347 0.166431
-0.90442 -0.38945 0.061427
0.985102 0.819812 0.00568743
0.148594 0.731591 0.0799561
-0.338072 0.299153 0.217719
-0.934016 0.706206 0.0401847
-0.32822 0.0335851 0.204812
-0.927818 0.0724868 0.0323598
-0.307819 0.535146 0.141382
0.904651 0.164565 0.0473565
-0.319469 0.286678 0.211336
-0.936862 0.704362 0.0442451
-0.337272 0.186127 0.225311
-0.892006 -0.849 0.0817791
0.997505 0.839551 0.0136333
-0.324078 0.438848 0.159538
1.01961 -0.207768 -0.0497338
-0.935193 0.718653 0.0548055
-0.932886 0.0321425 0.0283927
-0.909646 -0.49532 0.052844
1.00359 0.728087 -0.0169629
0.991412 0.485888 0.0182603
-0.930055 0.0528312 0.0177316
0.997363 0.499353 0.0200655
0.991945 0.492932 0.0178558
-0.911906 0.142685 0.0353016
1.00447 0.464991 -0.0209562
-1 -5 0
-1 -3 0
-1 3 0
-1 5 0
-3 -1 0
3  2 4 0
3  5 4 2
3  5 6 4
3  5 2 1
3  6 0 4
3  19 2 18
3  19 18 12
3  25 26 9
3  5 1 9
3  3 5 9
3  3 9 8
3  159 17 158
3  27 67 160
3  27 160 12
3  10 36 159
3  77 35 65
3  74 35 77
3  77 65 74
3  26 8 9
3  101 116 35
3  101 35 102
3  18 2 16
3  133 68 145
3  145 68 58
3  16 2 0
3  22 20 10
3  16 0 18
3  13 24 21
3  15 0 159
3  22 14 20
3  10 14 22
3  24 25 21
3  110 122 117
3  68 122 110
3  110 117 68
3  46 144 36
3  36 15 159
3  144 15 36
3  91 42 55
3  91 115 42
3  144 37 15
3  9 21 25
3  18 48 28
3  18 28 12
3  145 58 130
3  10 24 23
3  7 8 26
3  10 7 26
3  24 26 25
3  26 24 10
3  10 91 55
3  51 99 97
3  97 99 83
3  45 36 20
3  10 20 36
3  59 73 111
3  95 112 123
3  38 111 73
3  38 73 64
3  30 95 59
3  59 95 60
3  161 160 9
3  9 160 21
3  94 38 104
3  96 73 141
3  32 92 82
3  92 57 82
3  45 76 34
3  115 76 45
3  39 139 70
3  97 80 51
3  10 84 91
3  10 63 84
3  55 127 10
3  41 54 18
3  54 99 51
3  54 51 18
3  109 130 49
3  157 64 89
3  89 64 72
3  59 111 38
3  59 38 94
3  160 2 19
3  19 12 160
3  102 35 93
3  73 40 119
3  81 52 119
3  117 38 88
3  88 38 29
3  55 42 127
3  145 94 133
3  130 94 145
3  112 139 79
3  27 28 39
3  12 28 27
3  101 66 37
3  87 50 47
3  131 61 69
3  41 99 54
3  41 114 99
3  59 134 123
3  95 123 134
3  135 156 143
3  81 119 40
3  122 78 117
3  123 69 59
3  56 76 115
3  104 38 133
3  104 133 94
3  124 131 69
3  126 98 113
3  23 52 31
3  106 84 63
3  106 115 84
3  45 34 46
3  45 46 36
3  56 34 76
3  30 50 95
3  108 107 126
3  113 108 126
3  27 87 67
3  10 44 14
3  161 2 160
3  70 139 105
3  14 45 20
3  31 63 23
3  10 23 63
3  24 13 49
3  89 24 154
3  95 50 112
3  101 86 66
3  141 73 135
3  135 73 61
3  101 37 108
3  115 127 42
3  159 158 10
3  23 24 52
3  105 50 70
3  51 62 18
3  125 28 148
3  148 28 48
3  101 102 86
3  128 85 108
3  35 85 128
3  70 50 87
3  126 137 98
3  90 137 126
3  90 98 137
3  53 96 120
3  72 64 140
3  140 64 119
3  154 24 88
3  119 64 73
3  13 59 49
3  97 156 135
3  21 59 13
3  9 2 161
3  9 1 2
3  135 143 141
3  14 44 121
3  30 47 50
3  59 47 30
3  133 38 122
3  133 122 68
3  109 49 59
3  128 65 132
3  43 37 144
3  39 118 139
3  39 71 97
3  123 124 69
3  120 143 98
3  27 39 70
3  60 95 134
3  113 156 138
3  10 127 44
3  85 35 116
3  85 116 101
3  113 98 143
3  125 148 39
3  39 142 136
3  39 148 142
3  65 128 149
3  31 81 106
3  115 57 56
3  108 56 57
3  32 90 92
3  82 90 32
3  69 61 73
3  69 73 59
3  148 48 18
3  18 62 148
3  118 61 131
3  87 47 67
3  115 91 84
3  31 52 81
3  27 70 87
3  51 148 62
3  121 44 45
3  128 108 113
3  154 152 89
3  117 78 38
3  80 97 71
3  80 71 39
3  60 134 59
3  73 82 40
3  40 82 57
3  146 131 139
3  52 24 89
3  146 118 131
3  90 107 108
3  90 126 107
3  53 73 96
3  82 73 90
3  90 73 53
3  89 72 140
3  100 45 103
3  103 75 100
3  75 44 129
3  157 152 38
3  103 44 75
3  157 89 152
3  40 57 115
3  136 80 39
3  151 38 78
3  39 28 125
3  128 132 35
3  103 45 44
3  112 50 105
3  15 37 0
3  66 93 35
3  86 93 66
3  129 44 127
3  131 79 139
3  98 90 120
3  51 80 148
3  65 149 74
3  74 149 33
3  37 66 0
3  53 120 90
3  129 127 75
3  112 105 139
3  124 79 131
3  74 33 41
3  41 33 149
3  122 38 151
3  151 78 122
3  101 108 85
3  155 38 152
3  154 38 155
3  155 152 154
3  38 64 157
3  43 108 37
3  108 46 34
3  108 43 46
3  92 108 57
3  108 34 56
3  150 102 93
3  86 102 150
3  150 93 86
3  121 45 14
3  117 58 68
3  88 58 117
3  81 40 106
3  106 40 115
3  143 156 113
3  94 130 59
3  124 123 79
3  35 132 65
3  147 31 106
3  112 79 123
3  92 90 108
3  115 45 100
3  144 46 43
3  97 83 156
3  114 149 138
3  59 130 109
3  75 127 100
3  115 100 127
3  24 49 130
3  88 24 130
3  88 130 58
3  140 119 52
3  89 140 52
3  139 118 146
3  156 83 99
3  142 148 80
3  135 61 118
3  136 142 80
3  29 38 154
3  97 135 39
3  135 118 39
3  74 41 35
3  141 143 96
3  143 120 96
3  41 149 114
3  147 63 31
3  106 63 147
3  29 154 88
3  113 149 128
3  99 114 156
3  149 153 138
3  138 156 114
3  113 138 153
3  113 153 149
3  158 7 10
3  6 7 158
3  158 0 6
3  7 6 11
3  158 17 0
3  160 67 47
3  160 47 59
3  21 160 59
3  162 41 18
3  18 0 162
3  35 41 162
3  66 35 162
3  162 0 66
3  159 0 17

